spi.vcd
$date
	Fri Oct 28 19:29:59 2016
$end
$version
	Icarus Verilog
$end
$timescale
	1ps
$end
$scope module dff $end
$var wire 1 ! d $end
$var wire 1 " enable $end
$var wire 1 # trigger $end
$var reg 1 $ q $end
$upscope $end
$scope module mux_p $end
$var wire 4 % in0 [3:0] $end
$var wire 4 & in1 [3:0] $end
$var wire 4 ' out [3:0] $end
$var wire 1 ( sel $end
$upscope $end
$scope module testspi $end
$var wire 4 ) leds [3:0] $end
$var wire 1 * miso_pin $end
$var reg 8 + addr1 [7:0] $end
$var reg 8 , addr2 [7:0] $end
$var reg 1 - clk $end
$var reg 1 . cs_pin $end
$var reg 8 / data [7:0] $end
$var reg 8 0 dataout [7:0] $end
$var reg 4 1 i [3:0] $end
$var reg 1 2 mosi_pin $end
$var reg 1 3 sclk_pin $end
$scope module dut $end
$var wire 1 4 addrWe $end
$var wire 8 5 address [7:0] $end
$var wire 1 6 bufferin $end
$var wire 1 7 clk $end
$var wire 1 8 conditioned_cs $end
$var wire 1 9 conditioned_mosi $end
$var wire 1 : cs_pin $end
$var wire 8 ; dataOut [7:0] $end
$var wire 1 < dmWe $end
$var wire 1 = dummy0 $end
$var wire 1 > dummy1 $end
$var wire 1 ? dummy2 $end
$var wire 1 @ dummy3 $end
$var wire 1 A dummy5 $end
$var wire 1 B falling $end
$var wire 4 C leds [3:0] $end
$var wire 1 D misoBufe $end
$var wire 1 * miso_pin $end
$var wire 1 E mosi_pin $end
$var wire 8 F parallelDataOut [7:0] $end
$var wire 1 G rising $end
$var wire 1 H sclk_pin $end
$var wire 1 I serialDataOut $end
$var wire 1 J srWe $end
$scope module ic0 $end
$var wire 1 7 clk $end
$var wire 1 E noisysignal $end
$var reg 1 K conditioned $end
$var reg 3 L counter [2:0] $end
$var reg 1 M negativeedge $end
$var reg 1 N positiveedge $end
$var reg 1 O synchronizer0 $end
$var reg 1 P synchronizer1 $end
$upscope $end
$scope module ic1 $end
$var wire 1 7 clk $end
$var wire 1 H noisysignal $end
$var reg 1 Q conditioned $end
$var reg 3 R counter [2:0] $end
$var reg 1 S negativeedge $end
$var reg 1 T positiveedge $end
$var reg 1 U synchronizer0 $end
$var reg 1 V synchronizer1 $end
$upscope $end
$scope module ic2 $end
$var wire 1 7 clk $end
$var wire 1 : noisysignal $end
$var reg 1 W conditioned $end
$var reg 3 X counter [2:0] $end
$var reg 1 Y negativeedge $end
$var reg 1 Z positiveedge $end
$var reg 1 [ synchronizer0 $end
$var reg 1 \ synchronizer1 $end
$upscope $end
$scope module fsm $end
$var wire 1 7 clk $end
$var wire 1 8 cs $end
$var wire 1 ] rw $end
$var wire 1 G sclk $end
$var reg 1 ^ addr $end
$var reg 4 _ count [3:0] $end
$var reg 1 ` dm $end
$var reg 1 a misobuff $end
$var reg 1 b sr $end
$var reg 4 c state [3:0] $end
$upscope $end
$scope module sr $end
$var wire 1 7 clk $end
$var wire 8 d parallelDataIn [7:0] $end
$var wire 8 e parallelDataOut [7:0] $end
$var wire 1 J parallelLoad $end
$var wire 1 G peripheralClkEdge $end
$var wire 1 9 serialDataIn $end
$var wire 1 I serialDataOut $end
$var reg 8 f shiftregistermem [7:0] $end
$upscope $end
$scope module addressLatch $end
$var wire 8 g d [7:0] $end
$var wire 1 4 enable $end
$var wire 1 7 trigger $end
$var reg 8 h q [7:0] $end
$upscope $end
$scope module dm $end
$var wire 7 i address [6:0] $end
$var wire 1 7 clk $end
$var wire 8 j dataIn [7:0] $end
$var wire 1 < writeEnable $end
$var reg 8 k dataOut [7:0] $end
$upscope $end
$scope module dffm $end
$var wire 1 I d $end
$var wire 1 B enable $end
$var wire 1 7 trigger $end
$var reg 1 l q $end
$upscope $end
$scope module buff $end
$var wire 1 D enable $end
$var wire 1 6 in $end
$var wire 1 * out $end
$upscope $end
$upscope $end
$upscope $end
$enddefinitions $end
#0
$dumpvars
xl
bx k
bx j
bx i
bx h
bx g
bx f
bx e
bx d
b0 c
0b
0a
0`
b0 _
0^
x]
0\
0[
0Z
0Y
b0 X
0W
0V
0U
0T
0S
b0 R
0Q
0P
0O
0N
0M
b0 L
0K
0J
xI
0H
0G
bx F
0E
0D
bz C
0B
0A
0@
0?
0>
0=
0<
bx ;
0:
09
08
07
x6
bx 5
04
03
02
bx 1
b0 0
b11001111 /
0.
0-
b111100 ,
b110011 +
z*
bz )
z(
bz '
bz &
bz %
x$
z#
z"
z!
$end
#1000
1-
17
#2000
0-
07
#3000
1-
17
#4000
0-
07
#5000
1-
17
#6000
0-
07
#7000
1-
17
#8000
0-
07
#9000
1-
17
#10000
0-
07
#11000
1-
17
#12000
0-
07
#13000
1-
17
#14000
0-
07
#15000
1-
17
#16000
0-
07
#17000
1-
17
#18000
0-
07
#19000
1-
17
#20000
0-
07
#21000
1-
17
#22000
0-
07
#23000
1-
17
#24000
0-
07
#25000
1-
17
#26000
0-
07
#27000
1-
17
#28000
0-
07
#29000
1-
17
#30000
0-
07
#31000
1-
17
#32000
0-
07
#33000
1-
17
#34000
0-
07
#35000
1-
17
#36000
0-
07
#37000
1-
17
#38000
0-
07
#39000
1-
17
#40000
0-
07
#41000
1-
17
#42000
0-
07
#43000
1-
17
#44000
0-
07
#45000
1-
17
#46000
0-
07
#47000
1-
17
#48000
0-
07
#49000
1-
17
#50000
0-
07
13
1H
#51000
1U
1-
17
#52000
0-
07
#53000
1V
1-
17
#54000
0-
07
#55000
b1 R
1-
17
#56000
0-
07
#57000
b10 R
1-
17
#58000
0-
07
#59000
b11 R
1-
17
#60000
0-
07
#61000
1T
1G
1Q
1?
b0 R
1-
17
#62000
0-
07
#63000
0]
bx0 f
bx0 F
bx0 e
bx0 g
bx0 j
b1 _
0T
0G
1-
17
#64000
0-
07
#65000
1-
17
#66000
0-
07
#67000
1-
17
#68000
0-
07
#69000
1-
17
#70000
0-
07
#71000
1-
17
#72000
0-
07
#73000
1-
17
#74000
0-
07
#75000
1-
17
#76000
0-
07
#77000
1-
17
#78000
0-
07
#79000
1-
17
#80000
0-
07
#81000
1-
17
#82000
0-
07
#83000
1-
17
#84000
0-
07
#85000
1-
17
#86000
0-
07
#87000
1-
17
#88000
0-
07
#89000
1-
17
#90000
0-
07
#91000
1-
17
#92000
0-
07
#93000
1-
17
#94000
0-
07
#95000
1-
17
#96000
0-
07
#97000
1-
17
#98000
0-
07
#99000
1-
17
#100000
0-
07
03
0H
#101000
0U
1-
17
#102000
0-
07
#103000
0V
1-
17
#104000
0-
07
#105000
b1 R
1-
17
#106000
0-
07
#107000
b10 R
1-
17
#108000
0-
07
#109000
b11 R
1-
17
#110000
0-
07
#111000
1S
1B
0Q
0?
b0 R
1-
17
#112000
0-
07
#113000
0S
0B
1-
17
#114000
0-
07
#115000
1-
17
#116000
0-
07
#117000
1-
17
#118000
0-
07
#119000
1-
17
#120000
0-
07
#121000
1-
17
#122000
0-
07
#123000
1-
17
#124000
0-
07
#125000
1-
17
#126000
0-
07
#127000
1-
17
#128000
0-
07
#129000
1-
17
#130000
0-
07
#131000
1-
17
#132000
0-
07
#133000
1-
17
#134000
0-
07
#135000
1-
17
#136000
0-
07
#137000
1-
17
#138000
0-
07
#139000
1-
17
#140000
0-
07
#141000
1-
17
#142000
0-
07
#143000
1-
17
#144000
0-
07
#145000
1-
17
#146000
0-
07
#147000
1-
17
#148000
0-
07
#149000
1-
17
#150000
0-
07
13
1H
#151000
1U
1-
17
#152000
0-
07
#153000
1V
1-
17
#154000
0-
07
#155000
b1 R
1-
17
#156000
0-
07
#157000
b10 R
1-
17
#158000
0-
07
#159000
b11 R
1-
17
#160000
0-
07
#161000
1T
1G
1Q
1?
b0 R
1-
17
#162000
0-
07
#163000
bx00 f
bx00 F
bx00 e
bx00 g
bx00 j
b10 _
0T
0G
1-
17
#164000
0-
07
#165000
1-
17
#166000
0-
07
#167000
1-
17
#168000
0-
07
#169000
1-
17
#170000
0-
07
#171000
1-
17
#172000
0-
07
#173000
1-
17
#174000
0-
07
#175000
1-
17
#176000
0-
07
#177000
1-
17
#178000
0-
07
#179000
1-
17
#180000
0-
07
#181000
1-
17
#182000
0-
07
#183000
1-
17
#184000
0-
07
#185000
1-
17
#186000
0-
07
#187000
1-
17
#188000
0-
07
#189000
1-
17
#190000
0-
07
#191000
1-
17
#192000
0-
07
#193000
1-
17
#194000
0-
07
#195000
1-
17
#196000
0-
07
#197000
1-
17
#198000
0-
07
#199000
1-
17
#200000
12
1E
0-
07
03
0H
b0 1
#201000
1O
0U
1-
17
#202000
0-
07
#203000
0V
1P
1-
17
#204000
0-
07
#205000
b1 L
b1 R
1-
17
#206000
0-
07
#207000
b10 R
b10 L
1-
17
#208000
0-
07
#209000
b11 L
b11 R
1-
17
#210000
0-
07
#211000
1S
1B
0Q
0?
b0 R
1N
1=
1K
19
b0 L
1-
17
#212000
0-
07
#213000
0N
0=
0S
0B
1-
17
#214000
0-
07
#215000
1-
17
#216000
0-
07
#217000
1-
17
#218000
0-
07
#219000
1-
17
#220000
0-
07
#221000
1-
17
#222000
0-
07
#223000
1-
17
#224000
0-
07
#225000
1-
17
#226000
0-
07
#227000
1-
17
#228000
0-
07
#229000
1-
17
#230000
0-
07
#231000
1-
17
#232000
0-
07
#233000
1-
17
#234000
0-
07
#235000
1-
17
#236000
0-
07
#237000
1-
17
#238000
0-
07
#239000
1-
17
#240000
0-
07
#241000
1-
17
#242000
0-
07
#243000
1-
17
#244000
0-
07
#245000
1-
17
#246000
0-
07
#247000
1-
17
#248000
0-
07
#249000
1-
17
#250000
0-
07
13
1H
#251000
1U
1-
17
#252000
0-
07
#253000
1V
1-
17
#254000
0-
07
#255000
b1 R
1-
17
#256000
0-
07
#257000
b10 R
1-
17
#258000
0-
07
#259000
b11 R
1-
17
#260000
0-
07
#261000
1T
1G
1Q
1?
b0 R
1-
17
#262000
0-
07
#263000
1]
bx001 f
bx001 F
bx001 e
bx001 g
bx001 j
b11 _
0T
0G
1-
17
#264000
0-
07
#265000
1-
17
#266000
0-
07
#267000
1-
17
#268000
0-
07
#269000
1-
17
#270000
0-
07
#271000
1-
17
#272000
0-
07
#273000
1-
17
#274000
0-
07
#275000
1-
17
#276000
0-
07
#277000
1-
17
#278000
0-
07
#279000
1-
17
#280000
0-
07
#281000
1-
17
#282000
0-
07
#283000
1-
17
#284000
0-
07
#285000
1-
17
#286000
0-
07
#287000
1-
17
#288000
0-
07
#289000
1-
17
#290000
0-
07
#291000
1-
17
#292000
0-
07
#293000
1-
17
#294000
0-
07
#295000
1-
17
#296000
0-
07
#297000
1-
17
#298000
0-
07
#299000
1-
17
#300000
0-
07
03
0H
b1 1
#301000
0U
1-
17
#302000
0-
07
#303000
0V
1-
17
#304000
0-
07
#305000
b1 R
1-
17
#306000
0-
07
#307000
b10 R
1-
17
#308000
0-
07
#309000
b11 R
1-
17
#310000
0-
07
#311000
1S
1B
0Q
0?
b0 R
1-
17
#312000
0-
07
#313000
0S
0B
1-
17
#314000
0-
07
#315000
1-
17
#316000
0-
07
#317000
1-
17
#318000
0-
07
#319000
1-
17
#320000
0-
07
#321000
1-
17
#322000
0-
07
#323000
1-
17
#324000
0-
07
#325000
1-
17
#326000
0-
07
#327000
1-
17
#328000
0-
07
#329000
1-
17
#330000
0-
07
#331000
1-
17
#332000
0-
07
#333000
1-
17
#334000
0-
07
#335000
1-
17
#336000
0-
07
#337000
1-
17
#338000
0-
07
#339000
1-
17
#340000
0-
07
#341000
1-
17
#342000
0-
07
#343000
1-
17
#344000
0-
07
#345000
1-
17
#346000
0-
07
#347000
1-
17
#348000
0-
07
#349000
1-
17
#350000
0-
07
13
1H
#351000
1U
1-
17
#352000
0-
07
#353000
1V
1-
17
#354000
0-
07
#355000
b1 R
1-
17
#356000
0-
07
#357000
b10 R
1-
17
#358000
0-
07
#359000
b11 R
1-
17
#360000
0-
07
#361000
1T
1G
1Q
1?
b0 R
1-
17
#362000
0-
07
#363000
bx0011 f
bx0011 F
bx0011 e
bx0011 g
bx0011 j
b100 _
0T
0G
1-
17
#364000
0-
07
#365000
1-
17
#366000
0-
07
#367000
1-
17
#368000
0-
07
#369000
1-
17
#370000
0-
07
#371000
1-
17
#372000
0-
07
#373000
1-
17
#374000
0-
07
#375000
1-
17
#376000
0-
07
#377000
1-
17
#378000
0-
07
#379000
1-
17
#380000
0-
07
#381000
1-
17
#382000
0-
07
#383000
1-
17
#384000
0-
07
#385000
1-
17
#386000
0-
07
#387000
1-
17
#388000
0-
07
#389000
1-
17
#390000
0-
07
#391000
1-
17
#392000
0-
07
#393000
1-
17
#394000
0-
07
#395000
1-
17
#396000
0-
07
#397000
1-
17
#398000
0-
07
#399000
1-
17
#400000
02
0E
0-
07
03
0H
b10 1
#401000
0O
0U
1-
17
#402000
0-
07
#403000
0V
0P
1-
17
#404000
0-
07
#405000
b1 L
b1 R
1-
17
#406000
0-
07
#407000
b10 R
b10 L
1-
17
#408000
0-
07
#409000
b11 L
b11 R
1-
17
#410000
0-
07
#411000
1S
1B
0Q
0?
b0 R
1M
1>
0K
09
b0 L
1-
17
#412000
0-
07
#413000
0M
0>
0S
0B
1-
17
#414000
0-
07
#415000
1-
17
#416000
0-
07
#417000
1-
17
#418000
0-
07
#419000
1-
17
#420000
0-
07
#421000
1-
17
#422000
0-
07
#423000
1-
17
#424000
0-
07
#425000
1-
17
#426000
0-
07
#427000
1-
17
#428000
0-
07
#429000
1-
17
#430000
0-
07
#431000
1-
17
#432000
0-
07
#433000
1-
17
#434000
0-
07
#435000
1-
17
#436000
0-
07
#437000
1-
17
#438000
0-
07
#439000
1-
17
#440000
0-
07
#441000
1-
17
#442000
0-
07
#443000
1-
17
#444000
0-
07
#445000
1-
17
#446000
0-
07
#447000
1-
17
#448000
0-
07
#449000
1-
17
#450000
0-
07
13
1H
#451000
1U
1-
17
#452000
0-
07
#453000
1V
1-
17
#454000
0-
07
#455000
b1 R
1-
17
#456000
0-
07
#457000
b10 R
1-
17
#458000
0-
07
#459000
b11 R
1-
17
#460000
0-
07
#461000
1T
1G
1Q
1?
b0 R
1-
17
#462000
0-
07
#463000
0]
bx00110 f
bx00110 F
bx00110 e
bx00110 g
bx00110 j
b101 _
0T
0G
1-
17
#464000
0-
07
#465000
1-
17
#466000
0-
07
#467000
1-
17
#468000
0-
07
#469000
1-
17
#470000
0-
07
#471000
1-
17
#472000
0-
07
#473000
1-
17
#474000
0-
07
#475000
1-
17
#476000
0-
07
#477000
1-
17
#478000
0-
07
#479000
1-
17
#480000
0-
07
#481000
1-
17
#482000
0-
07
#483000
1-
17
#484000
0-
07
#485000
1-
17
#486000
0-
07
#487000
1-
17
#488000
0-
07
#489000
1-
17
#490000
0-
07
#491000
1-
17
#492000
0-
07
#493000
1-
17
#494000
0-
07
#495000
1-
17
#496000
0-
07
#497000
1-
17
#498000
0-
07
#499000
1-
17
#500000
0-
07
03
0H
b11 1
#501000
0U
1-
17
#502000
0-
07
#503000
0V
1-
17
#504000
0-
07
#505000
b1 R
1-
17
#506000
0-
07
#507000
b10 R
1-
17
#508000
0-
07
#509000
b11 R
1-
17
#510000
0-
07
#511000
1S
1B
0Q
0?
b0 R
1-
17
#512000
0-
07
#513000
0S
0B
1-
17
#514000
0-
07
#515000
1-
17
#516000
0-
07
#517000
1-
17
#518000
0-
07
#519000
1-
17
#520000
0-
07
#521000
1-
17
#522000
0-
07
#523000
1-
17
#524000
0-
07
#525000
1-
17
#526000
0-
07
#527000
1-
17
#528000
0-
07
#529000
1-
17
#530000
0-
07
#531000
1-
17
#532000
0-
07
#533000
1-
17
#534000
0-
07
#535000
1-
17
#536000
0-
07
#537000
1-
17
#538000
0-
07
#539000
1-
17
#540000
0-
07
#541000
1-
17
#542000
0-
07
#543000
1-
17
#544000
0-
07
#545000
1-
17
#546000
0-
07
#547000
1-
17
#548000
0-
07
#549000
1-
17
#550000
0-
07
13
1H
#551000
1U
1-
17
#552000
0-
07
#553000
1V
1-
17
#554000
0-
07
#555000
b1 R
1-
17
#556000
0-
07
#557000
b10 R
1-
17
#558000
0-
07
#559000
b11 R
1-
17
#560000
0-
07
#561000
1T
1G
1Q
1?
b0 R
1-
17
#562000
0-
07
#563000
bx001100 f
bx001100 F
bx001100 e
bx001100 g
bx001100 j
b110 _
0T
0G
1-
17
#564000
0-
07
#565000
1-
17
#566000
0-
07
#567000
1-
17
#568000
0-
07
#569000
1-
17
#570000
0-
07
#571000
1-
17
#572000
0-
07
#573000
1-
17
#574000
0-
07
#575000
1-
17
#576000
0-
07
#577000
1-
17
#578000
0-
07
#579000
1-
17
#580000
0-
07
#581000
1-
17
#582000
0-
07
#583000
1-
17
#584000
0-
07
#585000
1-
17
#586000
0-
07
#587000
1-
17
#588000
0-
07
#589000
1-
17
#590000
0-
07
#591000
1-
17
#592000
0-
07
#593000
1-
17
#594000
0-
07
#595000
1-
17
#596000
0-
07
#597000
1-
17
#598000
0-
07
#599000
1-
17
#600000
12
1E
0-
07
03
0H
b100 1
#601000
1O
0U
1-
17
#602000
0-
07
#603000
0V
1P
1-
17
#604000
0-
07
#605000
b1 L
b1 R
1-
17
#606000
0-
07
#607000
b10 R
b10 L
1-
17
#608000
0-
07
#609000
b11 L
b11 R
1-
17
#610000
0-
07
#611000
1S
1B
0Q
0?
b0 R
1N
1=
1K
19
b0 L
1-
17
#612000
0-
07
#613000
0N
0=
0S
0B
1-
17
#614000
0-
07
#615000
1-
17
#616000
0-
07
#617000
1-
17
#618000
0-
07
#619000
1-
17
#620000
0-
07
#621000
1-
17
#622000
0-
07
#623000
1-
17
#624000
0-
07
#625000
1-
17
#626000
0-
07
#627000
1-
17
#628000
0-
07
#629000
1-
17
#630000
0-
07
#631000
1-
17
#632000
0-
07
#633000
1-
17
#634000
0-
07
#635000
1-
17
#636000
0-
07
#637000
1-
17
#638000
0-
07
#639000
1-
17
#640000
0-
07
#641000
1-
17
#642000
0-
07
#643000
1-
17
#644000
0-
07
#645000
1-
17
#646000
0-
07
#647000
1-
17
#648000
0-
07
#649000
1-
17
#650000
0-
07
13
1H
#651000
1U
1-
17
#652000
0-
07
#653000
1V
1-
17
#654000
0-
07
#655000
b1 R
1-
17
#656000
0-
07
#657000
b10 R
1-
17
#658000
0-
07
#659000
b11 R
1-
17
#660000
0-
07
#661000
1T
1G
1Q
1?
b0 R
1-
17
#662000
0-
07
#663000
1]
bx0011001 f
bx0011001 F
bx0011001 e
bx0011001 g
bx0011001 j
b111 _
0T
0G
1-
17
#664000
0-
07
#665000
1-
17
#666000
0-
07
#667000
1-
17
#668000
0-
07
#669000
1-
17
#670000
0-
07
#671000
1-
17
#672000
0-
07
#673000
1-
17
#674000
0-
07
#675000
1-
17
#676000
0-
07
#677000
1-
17
#678000
0-
07
#679000
1-
17
#680000
0-
07
#681000
1-
17
#682000
0-
07
#683000
1-
17
#684000
0-
07
#685000
1-
17
#686000
0-
07
#687000
1-
17
#688000
0-
07
#689000
1-
17
#690000
0-
07
#691000
1-
17
#692000
0-
07
#693000
1-
17
#694000
0-
07
#695000
1-
17
#696000
0-
07
#697000
1-
17
#698000
0-
07
#699000
1-
17
#700000
0-
07
03
0H
b101 1
#701000
0U
1-
17
#702000
0-
07
#703000
0V
1-
17
#704000
0-
07
#705000
b1 R
1-
17
#706000
0-
07
#707000
b10 R
1-
17
#708000
0-
07
#709000
b11 R
1-
17
#710000
0-
07
#711000
1S
1B
0Q
0?
b0 R
1-
17
#712000
0-
07
#713000
0S
0B
1-
17
#714000
0-
07
#715000
1-
17
#716000
0-
07
#717000
1-
17
#718000
0-
07
#719000
1-
17
#720000
0-
07
#721000
1-
17
#722000
0-
07
#723000
1-
17
#724000
0-
07
#725000
1-
17
#726000
0-
07
#727000
1-
17
#728000
0-
07
#729000
1-
17
#730000
0-
07
#731000
1-
17
#732000
0-
07
#733000
1-
17
#734000
0-
07
#735000
1-
17
#736000
0-
07
#737000
1-
17
#738000
0-
07
#739000
1-
17
#740000
0-
07
#741000
1-
17
#742000
0-
07
#743000
1-
17
#744000
0-
07
#745000
1-
17
#746000
0-
07
#747000
1-
17
#748000
0-
07
#749000
1-
17
#750000
0-
07
13
1H
#751000
1U
1-
17
#752000
0-
07
#753000
1V
1-
17
#754000
0-
07
#755000
b1 R
1-
17
#756000
0-
07
#757000
b10 R
1-
17
#758000
0-
07
#759000
b11 R
1-
17
#760000
0-
07
#761000
1T
1G
1Q
1?
b0 R
1-
17
#762000
0-
07
#763000
0I
b110011 f
b110011 F
b110011 e
b110011 g
b110011 j
b1000 _
0T
0G
1-
17
#764000
0-
07
#765000
1-
17
#766000
0-
07
#767000
1-
17
#768000
0-
07
#769000
1-
17
#770000
0-
07
#771000
1-
17
#772000
0-
07
#773000
1-
17
#774000
0-
07
#775000
1-
17
#776000
0-
07
#777000
1-
17
#778000
0-
07
#779000
1-
17
#780000
0-
07
#781000
1-
17
#782000
0-
07
#783000
1-
17
#784000
0-
07
#785000
1-
17
#786000
0-
07
#787000
1-
17
#788000
0-
07
#789000
1-
17
#790000
0-
07
#791000
1-
17
#792000
0-
07
#793000
1-
17
#794000
0-
07
#795000
1-
17
#796000
0-
07
#797000
1-
17
#798000
0-
07
#799000
1-
17
#800000
02
0E
0-
07
03
0H
b110 1
#801000
0O
0U
1-
17
#802000
0-
07
#803000
0V
0P
1-
17
#804000
0-
07
#805000
b1 L
b1 R
1-
17
#806000
0-
07
#807000
b10 R
b10 L
1-
17
#808000
0-
07
#809000
b11 L
b11 R
1-
17
#810000
0-
07
#811000
1S
1B
0Q
0?
b0 R
1M
1>
0K
09
b0 L
1-
17
#812000
0-
07
#813000
0M
0>
0S
0B
0l
06
1-
17
#814000
0-
07
#815000
1-
17
#816000
0-
07
#817000
1-
17
#818000
0-
07
#819000
1-
17
#820000
0-
07
#821000
1-
17
#822000
0-
07
#823000
1-
17
#824000
0-
07
#825000
1-
17
#826000
0-
07
#827000
1-
17
#828000
0-
07
#829000
1-
17
#830000
0-
07
#831000
1-
17
#832000
0-
07
#833000
1-
17
#834000
0-
07
#835000
1-
17
#836000
0-
07
#837000
1-
17
#838000
0-
07
#839000
1-
17
#840000
0-
07
#841000
1-
17
#842000
0-
07
#843000
1-
17
#844000
0-
07
#845000
1-
17
#846000
0-
07
#847000
1-
17
#848000
0-
07
#849000
1-
17
#850000
0-
07
13
1H
#851000
1U
1-
17
#852000
0-
07
#853000
1V
1-
17
#854000
0-
07
#855000
b1 R
1-
17
#856000
0-
07
#857000
b10 R
1-
17
#858000
0-
07
#859000
b11 R
1-
17
#860000
0-
07
#861000
1T
1G
1Q
1?
b0 R
1-
17
#862000
0-
07
#863000
0]
b1100110 f
b1100110 F
b1100110 e
b1100110 g
b1100110 j
b1 c
0T
0G
1-
17
#864000
0-
07
#865000
b101 c
1^
14
1-
17
#866000
0-
07
#867000
b1100110 i
b1100110 h
b1100110 5
b110 c
1-
17
#868000
0-
07
#869000
b111 c
1`
1<
1-
17
#870000
0-
07
#871000
b0 _
1-
17
#872000
0-
07
#873000
b1100110 k
b1100110 ;
b1100110 d
1-
17
#874000
0-
07
#875000
1-
17
#876000
0-
07
#877000
1-
17
#878000
0-
07
#879000
1-
17
#880000
0-
07
#881000
1-
17
#882000
0-
07
#883000
1-
17
#884000
0-
07
#885000
1-
17
#886000
0-
07
#887000
1-
17
#888000
0-
07
#889000
1-
17
#890000
0-
07
#891000
1-
17
#892000
0-
07
#893000
1-
17
#894000
0-
07
#895000
1-
17
#896000
0-
07
#897000
1-
17
#898000
0-
07
#899000
1-
17
#900000
0-
07
03
0H
b111 1
#901000
0U
1-
17
#902000
0-
07
#903000
0V
1-
17
#904000
0-
07
#905000
b1 R
1-
17
#906000
0-
07
#907000
b10 R
1-
17
#908000
0-
07
#909000
b11 R
1-
17
#910000
0-
07
#911000
1S
1B
0Q
0?
b0 R
1-
17
#912000
0-
07
#913000
0S
0B
1-
17
#914000
0-
07
#915000
1-
17
#916000
0-
07
#917000
1-
17
#918000
0-
07
#919000
1-
17
#920000
0-
07
#921000
1-
17
#922000
0-
07
#923000
1-
17
#924000
0-
07
#925000
1-
17
#926000
0-
07
#927000
1-
17
#928000
0-
07
#929000
1-
17
#930000
0-
07
#931000
1-
17
#932000
0-
07
#933000
1-
17
#934000
0-
07
#935000
1-
17
#936000
0-
07
#937000
1-
17
#938000
0-
07
#939000
1-
17
#940000
0-
07
#941000
1-
17
#942000
0-
07
#943000
1-
17
#944000
0-
07
#945000
1-
17
#946000
0-
07
#947000
1-
17
#948000
0-
07
#949000
1-
17
#950000
0-
07
13
1H
#951000
1U
1-
17
#952000
0-
07
#953000
1V
1-
17
#954000
0-
07
#955000
b1 R
1-
17
#956000
0-
07
#957000
b10 R
1-
17
#958000
0-
07
#959000
b11 R
1-
17
#960000
0-
07
#961000
1T
1G
1Q
1?
b0 R
1-
17
#962000
0-
07
#963000
1I
b11001100 f
b11001100 F
b11001100 e
b11001100 g
b11001100 j
0T
0G
1-
17
#964000
0-
07
#965000
b1001100 i
b11001100 h
b11001100 5
1-
17
#966000
0-
07
#967000
bx k
bx ;
bx d
1-
17
#968000
0-
07
#969000
b11001100 k
b11001100 ;
b11001100 d
1-
17
#970000
0-
07
#971000
1-
17
#972000
0-
07
#973000
1-
17
#974000
0-
07
#975000
1-
17
#976000
0-
07
#977000
1-
17
#978000
0-
07
#979000
1-
17
#980000
0-
07
#981000
1-
17
#982000
0-
07
#983000
1-
17
#984000
0-
07
#985000
1-
17
#986000
0-
07
#987000
1-
17
#988000
0-
07
#989000
1-
17
#990000
0-
07
#991000
1-
17
#992000
0-
07
#993000
1-
17
#994000
0-
07
#995000
1-
17
#996000
0-
07
#997000
1-
17
#998000
0-
07
#999000
1-
17
#1000000
0-
07
03
0H
b1000 1
#1001000
0U
1-
17
#1002000
0-
07
#1003000
0V
1-
17
#1004000
0-
07
#1005000
b1 R
1-
17
#1006000
0-
07
#1007000
b10 R
1-
17
#1008000
0-
07
#1009000
b11 R
1-
17
#1010000
0-
07
#1011000
1S
1B
0Q
0?
b0 R
1-
17
#1012000
0-
07
#1013000
0S
0B
1l
16
1-
17
#1014000
0-
07
#1015000
1-
17
#1016000
0-
07
#1017000
1-
17
#1018000
0-
07
#1019000
1-
17
#1020000
12
1E
0-
07
b0 1
#1021000
1O
1-
17
#1022000
0-
07
#1023000
1P
1-
17
#1024000
0-
07
#1025000
b1 L
1-
17
#1026000
0-
07
#1027000
b10 L
1-
17
#1028000
0-
07
#1029000
b11 L
1-
17
#1030000
0-
07
#1031000
1N
1=
1K
19
b0 L
1-
17
#1032000
0-
07
#1033000
0N
0=
1-
17
#1034000
0-
07
#1035000
1-
17
#1036000
0-
07
#1037000
1-
17
#1038000
0-
07
#1039000
1-
17
#1040000
0-
07
#1041000
1-
17
#1042000
0-
07
#1043000
1-
17
#1044000
0-
07
#1045000
1-
17
#1046000
0-
07
#1047000
1-
17
#1048000
0-
07
#1049000
1-
17
#1050000
0-
07
13
1H
#1051000
1U
1-
17
#1052000
0-
07
#1053000
1V
1-
17
#1054000
0-
07
#1055000
b1 R
1-
17
#1056000
0-
07
#1057000
b10 R
1-
17
#1058000
0-
07
#1059000
b11 R
1-
17
#1060000
0-
07
#1061000
1T
1G
1Q
1?
b0 R
1-
17
#1062000
0-
07
#1063000
1]
b10011001 f
b10011001 F
b10011001 e
b10011001 g
b10011001 j
0T
0G
1-
17
#1064000
0-
07
#1065000
b11001 i
b10011001 h
b10011001 5
1-
17
#1066000
0-
07
#1067000
bx k
bx ;
bx d
1-
17
#1068000
0-
07
#1069000
b10011001 k
b10011001 ;
b10011001 d
1-
17
#1070000
0-
07
#1071000
1-
17
#1072000
0-
07
#1073000
1-
17
#1074000
0-
07
#1075000
1-
17
#1076000
0-
07
#1077000
1-
17
#1078000
0-
07
#1079000
1-
17
#1080000
0-
07
#1081000
1-
17
#1082000
0-
07
#1083000
1-
17
#1084000
0-
07
#1085000
1-
17
#1086000
0-
07
#1087000
1-
17
#1088000
0-
07
#1089000
1-
17
#1090000
0-
07
#1091000
1-
17
#1092000
0-
07
#1093000
1-
17
#1094000
0-
07
#1095000
1-
17
#1096000
0-
07
#1097000
1-
17
#1098000
0-
07
#1099000
1-
17
#1100000
0-
07
03
0H
#1101000
0U
1-
17
#1102000
0-
07
#1103000
0V
1-
17
#1104000
0-
07
#1105000
b1 R
1-
17
#1106000
0-
07
#1107000
b10 R
1-
17
#1108000
0-
07
#1109000
b11 R
1-
17
#1110000
0-
07
#1111000
1S
1B
0Q
0?
b0 R
1-
17
#1112000
0-
07
#1113000
0S
0B
1-
17
#1114000
0-
07
#1115000
1-
17
#1116000
0-
07
#1117000
1-
17
#1118000
0-
07
#1119000
1-
17
#1120000
0-
07
b1 1
#1121000
1-
17
#1122000
0-
07
#1123000
1-
17
#1124000
0-
07
#1125000
1-
17
#1126000
0-
07
#1127000
1-
17
#1128000
0-
07
#1129000
1-
17
#1130000
0-
07
#1131000
1-
17
#1132000
0-
07
#1133000
1-
17
#1134000
0-
07
#1135000
1-
17
#1136000
0-
07
#1137000
1-
17
#1138000
0-
07
#1139000
1-
17
#1140000
0-
07
#1141000
1-
17
#1142000
0-
07
#1143000
1-
17
#1144000
0-
07
#1145000
1-
17
#1146000
0-
07
#1147000
1-
17
#1148000
0-
07
#1149000
1-
17
#1150000
0-
07
13
1H
#1151000
1U
1-
17
#1152000
0-
07
#1153000
1V
1-
17
#1154000
0-
07
#1155000
b1 R
1-
17
#1156000
0-
07
#1157000
b10 R
1-
17
#1158000
0-
07
#1159000
b11 R
1-
17
#1160000
0-
07
#1161000
1T
1G
1Q
1?
b0 R
1-
17
#1162000
0-
07
#1163000
0I
b110011 f
b110011 F
b110011 e
b110011 g
b110011 j
0T
0G
1-
17
#1164000
0-
07
