spi.vcd
$date
	Sat Oct 29 20:45:16 2016
$end
$version
	Icarus Verilog
$end
$timescale
	1ps
$end
$scope module dff $end
$var wire 1 ! clk $end
$var wire 1 " d $end
$var wire 1 # enable $end
$var reg 1 $ q $end
$upscope $end
$scope module mux_p $end
$var wire 4 % in0 [3:0] $end
$var wire 4 & in1 [3:0] $end
$var wire 4 ' out [3:0] $end
$var wire 1 ( sel $end
$upscope $end
$scope module testspi $end
$var wire 4 ) leds [3:0] $end
$var wire 1 * miso_pin $end
$var reg 8 + addr1r [7:0] $end
$var reg 8 , addr1w [7:0] $end
$var reg 8 - addr2r [7:0] $end
$var reg 8 . addr2w [7:0] $end
$var reg 1 / clk $end
$var reg 1 0 cs_pin $end
$var reg 8 1 data1 [7:0] $end
$var reg 8 2 data2 [7:0] $end
$var reg 8 3 dataout [7:0] $end
$var reg 4 4 i [3:0] $end
$var reg 1 5 mosi_pin $end
$var reg 1 6 sclk_pin $end
$scope module dut $end
$var wire 1 7 addrWe $end
$var wire 8 8 address [7:0] $end
$var wire 1 9 bufferin $end
$var wire 1 : clk $end
$var wire 1 ; conditioned_cs $end
$var wire 1 < conditioned_mosi $end
$var wire 1 = cs_pin $end
$var wire 8 > dataOut [7:0] $end
$var wire 1 ? dmWe $end
$var wire 1 @ falling $end
$var wire 1 A ic0negedge $end
$var wire 1 B ic0posedge $end
$var wire 1 C ic1conditioned $end
$var wire 1 D ic2negedge $end
$var wire 1 E ic2posedge $end
$var wire 4 F leds [3:0] $end
$var wire 1 G misoBufe $end
$var wire 1 * miso_pin $end
$var wire 1 H mosi_pin $end
$var wire 8 I parallelDataOut [7:0] $end
$var wire 1 J rising $end
$var wire 1 K sclk_pin $end
$var wire 1 L serialDataOut $end
$var wire 1 M srWe $end
$scope module ic0 $end
$var wire 1 : clk $end
$var wire 1 H noisysignal $end
$var reg 1 N conditioned $end
$var reg 3 O counter [2:0] $end
$var reg 1 P negativeedge $end
$var reg 1 Q positiveedge $end
$var reg 1 R synchronizer0 $end
$var reg 1 S synchronizer1 $end
$upscope $end
$scope module ic1 $end
$var wire 1 : clk $end
$var wire 1 K noisysignal $end
$var reg 1 T conditioned $end
$var reg 3 U counter [2:0] $end
$var reg 1 V negativeedge $end
$var reg 1 W positiveedge $end
$var reg 1 X synchronizer0 $end
$var reg 1 Y synchronizer1 $end
$upscope $end
$scope module ic2 $end
$var wire 1 : clk $end
$var wire 1 = noisysignal $end
$var reg 1 Z conditioned $end
$var reg 3 [ counter [2:0] $end
$var reg 1 \ negativeedge $end
$var reg 1 ] positiveedge $end
$var reg 1 ^ synchronizer0 $end
$var reg 1 _ synchronizer1 $end
$upscope $end
$scope module fsm $end
$var wire 1 : clk $end
$var wire 1 ; cs $end
$var wire 1 ` rw $end
$var wire 1 J sclk $end
$var reg 1 a addr $end
$var reg 4 b count [3:0] $end
$var reg 1 c dm $end
$var reg 1 d misobuff $end
$var reg 1 e sr $end
$var reg 4 f state [3:0] $end
$upscope $end
$scope module sr $end
$var wire 1 : clk $end
$var wire 8 g parallelDataIn [7:0] $end
$var wire 8 h parallelDataOut [7:0] $end
$var wire 1 M parallelLoad $end
$var wire 1 J peripheralClkEdge $end
$var wire 1 < serialDataIn $end
$var wire 1 L serialDataOut $end
$var reg 8 i shiftregistermem [7:0] $end
$upscope $end
$scope module addressLatch $end
$var wire 1 : clk $end
$var wire 8 j d [7:0] $end
$var wire 1 7 enable $end
$var reg 8 k q [7:0] $end
$upscope $end
$scope module dm $end
$var wire 7 l address [6:0] $end
$var wire 1 : clk $end
$var wire 8 m dataIn [7:0] $end
$var wire 1 ? writeEnable $end
$var reg 8 n dataOut [7:0] $end
$upscope $end
$scope module dffm $end
$var wire 1 : clk $end
$var wire 1 L d $end
$var wire 1 @ enable $end
$var reg 1 o q $end
$upscope $end
$scope module buff $end
$var wire 1 G enable $end
$var wire 1 9 in $end
$var wire 1 * out $end
$upscope $end
$upscope $end
$upscope $end
$enddefinitions $end
#0
$dumpvars
xo
bx n
bx m
bx l
bx k
bx j
bx i
bx h
bx g
b0 f
0e
0d
0c
b0 b
0a
x`
0_
0^
0]
0\
b0 [
0Z
0Y
0X
0W
0V
b0 U
0T
0S
0R
0Q
0P
b0 O
0N
0M
xL
0K
0J
bx I
0H
0G
bz F
0E
0D
0C
0B
0A
0@
0?
bx >
0=
0<
0;
0:
x9
bx 8
07
06
05
bx 4
b0 3
b11001100 2
b1010101 1
00
0/
b1001111 .
b11001111 -
b1111100 ,
b11111100 +
0*
bz )
z(
bz '
bz &
bz %
x$
z#
z"
z!
$end
#1000
b1 b
1/
1:
#2000
0/
0:
#3000
b10 b
1/
1:
#4000
0/
0:
#5000
b11 b
1/
1:
#6000
0/
0:
#7000
b100 b
1/
1:
#8000
0/
0:
#9000
b101 b
1/
1:
#10000
0/
0:
#11000
b110 b
1/
1:
#12000
0/
0:
#13000
b111 b
1/
1:
#14000
0/
0:
#15000
b1000 b
1/
1:
#16000
0/
0:
#17000
b1001 b
1/
1:
#18000
0/
0:
#19000
b1010 b
1/
1:
#20000
0/
0:
#21000
b1011 b
1/
1:
#22000
0/
0:
#23000
b1100 b
1/
1:
#24000
0/
0:
#25000
b1101 b
1/
1:
#26000
0/
0:
#27000
b1110 b
1/
1:
#28000
0/
0:
#29000
b1111 b
1/
1:
#30000
0/
0:
#31000
b0 b
1/
1:
#32000
0/
0:
#33000
b1 b
1/
1:
#34000
0/
0:
#35000
b10 b
1/
1:
#36000
0/
0:
#37000
b11 b
1/
1:
#38000
0/
0:
#39000
b100 b
1/
1:
#40000
0/
0:
#41000
b101 b
1/
1:
#42000
0/
0:
#43000
b110 b
1/
1:
#44000
0/
0:
#45000
b111 b
1/
1:
#46000
0/
0:
#47000
b1000 b
1/
1:
#48000
0/
0:
#49000
b1001 b
1/
1:
#50000
0/
0:
16
1K
#51000
b1010 b
1X
1/
1:
#52000
0/
0:
#53000
1Y
b1011 b
1/
1:
#54000
0/
0:
#55000
b1100 b
b1 U
1/
1:
#56000
0/
0:
#57000
b10 U
b1101 b
1/
1:
#58000
0/
0:
#59000
b1110 b
b11 U
1/
1:
#60000
0/
0:
#61000
1W
1J
1T
1C
b0 U
b1111 b
1/
1:
#62000
0/
0:
#63000
0`
bx0 i
bx0 I
bx0 h
bx0 j
bx0 m
b1 f
b0 b
0W
0J
1/
1:
#64000
0/
0:
#65000
b101 f
1a
17
b0 b
1/
1:
#66000
0/
0:
#67000
bx0 l
bx0 k
bx0 8
0a
07
b1 b
1/
1:
#68000
0/
0:
#69000
b10 b
1/
1:
#70000
0/
0:
#71000
b11 b
1/
1:
#72000
0/
0:
#73000
b100 b
1/
1:
#74000
0/
0:
#75000
b101 b
1/
1:
#76000
0/
0:
#77000
b110 b
1/
1:
#78000
0/
0:
#79000
b111 b
1/
1:
#80000
0/
0:
#81000
b1000 b
1/
1:
#82000
0/
0:
#83000
b110 f
b1001 b
1/
1:
#84000
0/
0:
#85000
b111 f
1c
1?
b1010 b
1/
1:
#86000
0/
0:
#87000
0c
0?
b0 b
1/
1:
#88000
0/
0:
#89000
b0 b
1/
1:
#90000
0/
0:
#91000
b0 b
1/
1:
#92000
0/
0:
#93000
b0 b
1/
1:
#94000
0/
0:
#95000
b0 b
1/
1:
#96000
0/
0:
#97000
b0 b
1/
1:
#98000
0/
0:
#99000
b0 b
1/
1:
#100000
0/
0:
06
0K
#101000
0X
b0 b
1/
1:
#102000
0/
0:
#103000
b0 b
0Y
1/
1:
#104000
0/
0:
#105000
b1 U
b0 b
1/
1:
#106000
0/
0:
#107000
b0 b
b10 U
1/
1:
#108000
0/
0:
#109000
b11 U
b0 b
1/
1:
#110000
0/
0:
#111000
b0 b
1V
1@
0T
0C
b0 U
1/
1:
#112000
0/
0:
#113000
0V
0@
b0 b
1/
1:
#114000
0/
0:
#115000
b0 b
1/
1:
#116000
0/
0:
#117000
b0 b
1/
1:
#118000
0/
0:
#119000
b0 b
1/
1:
#120000
0/
0:
#121000
b0 b
1/
1:
#122000
0/
0:
#123000
b0 b
1/
1:
#124000
0/
0:
#125000
b0 b
1/
1:
#126000
0/
0:
#127000
b0 b
1/
1:
#128000
0/
0:
#129000
b0 b
1/
1:
#130000
0/
0:
#131000
b0 b
1/
1:
#132000
0/
0:
#133000
b0 b
1/
1:
#134000
0/
0:
#135000
b0 b
1/
1:
#136000
0/
0:
#137000
b0 b
1/
1:
#138000
0/
0:
#139000
b0 b
1/
1:
#140000
0/
0:
#141000
b0 b
1/
1:
#142000
0/
0:
#143000
b0 b
1/
1:
#144000
0/
0:
#145000
b0 b
1/
1:
#146000
0/
0:
#147000
b0 b
1/
1:
#148000
0/
0:
#149000
b0 b
1/
1:
#150000
0/
0:
16
1K
#151000
b0 b
1X
1/
1:
#152000
0/
0:
#153000
1Y
b0 b
1/
1:
#154000
0/
0:
#155000
b0 b
b1 U
1/
1:
#156000
0/
0:
#157000
b10 U
b0 b
1/
1:
#158000
0/
0:
#159000
b0 b
b11 U
1/
1:
#160000
0/
0:
#161000
1W
1J
1T
1C
b0 U
b0 b
1/
1:
#162000
0/
0:
#163000
bx00 i
bx00 I
bx00 h
bx00 j
bx00 m
b0 b
0W
0J
1/
1:
#164000
0/
0:
#165000
b0 b
1/
1:
#166000
0/
0:
#167000
b0 b
1/
1:
#168000
0/
0:
#169000
b0 b
1/
1:
#170000
0/
0:
#171000
b0 b
1/
1:
#172000
0/
0:
#173000
b0 b
1/
1:
#174000
0/
0:
#175000
b0 b
1/
1:
#176000
0/
0:
#177000
b0 b
1/
1:
#178000
0/
0:
#179000
b0 b
1/
1:
#180000
0/
0:
#181000
b0 b
1/
1:
#182000
0/
0:
#183000
b0 b
1/
1:
#184000
0/
0:
#185000
b0 b
1/
1:
#186000
0/
0:
#187000
b0 b
1/
1:
#188000
0/
0:
#189000
b0 b
1/
1:
#190000
0/
0:
#191000
b0 b
1/
1:
#192000
0/
0:
#193000
b0 b
1/
1:
#194000
0/
0:
#195000
b0 b
1/
1:
#196000
0/
0:
#197000
b0 b
1/
1:
#198000
0/
0:
#199000
b0 b
1/
1:
#200000
0/
0:
06
0K
#201000
0X
b0 b
1/
1:
#202000
0/
0:
#203000
b0 b
0Y
1/
1:
#204000
0/
0:
#205000
b1 U
b0 b
1/
1:
#206000
0/
0:
#207000
b0 b
b10 U
1/
1:
#208000
0/
0:
#209000
b11 U
b0 b
1/
1:
#210000
0/
0:
#211000
b0 b
1V
1@
0T
0C
b0 U
1/
1:
#212000
0/
0:
#213000
0V
0@
b0 b
1/
1:
#214000
0/
0:
#215000
b0 b
1/
1:
#216000
0/
0:
#217000
b0 b
1/
1:
#218000
0/
0:
#219000
b0 b
1/
1:
#220000
0/
0:
#221000
b0 b
1/
1:
#222000
0/
0:
#223000
b0 b
1/
1:
#224000
0/
0:
#225000
b0 b
1/
1:
#226000
0/
0:
#227000
b0 b
1/
1:
#228000
0/
0:
#229000
b0 b
1/
1:
#230000
0/
0:
#231000
b0 b
1/
1:
#232000
0/
0:
#233000
b0 b
1/
1:
#234000
0/
0:
#235000
b0 b
1/
1:
#236000
0/
0:
#237000
b0 b
1/
1:
#238000
0/
0:
#239000
b0 b
1/
1:
#240000
0/
0:
#241000
b0 b
1/
1:
#242000
0/
0:
#243000
b0 b
1/
1:
#244000
0/
0:
#245000
b0 b
1/
1:
#246000
0/
0:
#247000
b0 b
1/
1:
#248000
0/
0:
#249000
b0 b
1/
1:
#250000
0/
0:
16
1K
#251000
b0 b
1X
1/
1:
#252000
0/
0:
#253000
1Y
b0 b
1/
1:
#254000
0/
0:
#255000
b0 b
b1 U
1/
1:
#256000
0/
0:
#257000
b10 U
b0 b
1/
1:
#258000
0/
0:
#259000
b0 b
b11 U
1/
1:
#260000
0/
0:
#261000
1W
1J
1T
1C
b0 U
b0 b
1/
1:
#262000
0/
0:
#263000
bx000 i
bx000 I
bx000 h
bx000 j
bx000 m
b0 b
0W
0J
1/
1:
#264000
0/
0:
#265000
b0 b
1/
1:
#266000
0/
0:
#267000
b0 b
1/
1:
#268000
0/
0:
#269000
b0 b
1/
1:
#270000
0/
0:
#271000
b0 b
1/
1:
#272000
0/
0:
#273000
b0 b
1/
1:
#274000
0/
0:
#275000
b0 b
1/
1:
#276000
0/
0:
#277000
b0 b
1/
1:
#278000
0/
0:
#279000
b0 b
1/
1:
#280000
0/
0:
#281000
b0 b
1/
1:
#282000
0/
0:
#283000
b0 b
1/
1:
#284000
0/
0:
#285000
b0 b
1/
1:
#286000
0/
0:
#287000
b0 b
1/
1:
#288000
0/
0:
#289000
b0 b
1/
1:
#290000
0/
0:
#291000
b0 b
1/
1:
#292000
0/
0:
#293000
b0 b
1/
1:
#294000
0/
0:
#295000
b0 b
1/
1:
#296000
0/
0:
#297000
b0 b
1/
1:
#298000
0/
0:
#299000
b0 b
1/
1:
#300000
0/
0:
06
0K
#301000
0X
b0 b
1/
1:
#302000
0/
0:
#303000
b0 b
0Y
1/
1:
#304000
0/
0:
#305000
b1 U
b0 b
1/
1:
#306000
0/
0:
#307000
b0 b
b10 U
1/
1:
#308000
0/
0:
#309000
b11 U
b0 b
1/
1:
#310000
0/
0:
#311000
b0 b
1V
1@
0T
0C
b0 U
1/
1:
#312000
0/
0:
#313000
0V
0@
b0 b
1/
1:
#314000
0/
0:
#315000
b0 b
1/
1:
#316000
0/
0:
#317000
b0 b
1/
1:
#318000
0/
0:
#319000
b0 b
1/
1:
#320000
0/
0:
#321000
b0 b
1/
1:
#322000
0/
0:
#323000
b0 b
1/
1:
#324000
0/
0:
#325000
b0 b
1/
1:
#326000
0/
0:
#327000
b0 b
1/
1:
#328000
0/
0:
#329000
b0 b
1/
1:
#330000
0/
0:
#331000
b0 b
1/
1:
#332000
0/
0:
#333000
b0 b
1/
1:
#334000
0/
0:
#335000
b0 b
1/
1:
#336000
0/
0:
#337000
b0 b
1/
1:
#338000
0/
0:
#339000
b0 b
1/
1:
#340000
0/
0:
#341000
b0 b
1/
1:
#342000
0/
0:
#343000
b0 b
1/
1:
#344000
0/
0:
#345000
b0 b
1/
1:
#346000
0/
0:
#347000
b0 b
1/
1:
#348000
0/
0:
#349000
b0 b
1/
1:
#350000
0/
0:
16
1K
#351000
b0 b
1X
1/
1:
#352000
0/
0:
#353000
1Y
b0 b
1/
1:
#354000
0/
0:
#355000
b0 b
b1 U
1/
1:
#356000
0/
0:
#357000
b10 U
b0 b
1/
1:
#358000
0/
0:
#359000
b0 b
b11 U
1/
1:
#360000
0/
0:
#361000
1W
1J
1T
1C
b0 U
b0 b
1/
1:
#362000
0/
0:
#363000
bx0000 i
bx0000 I
bx0000 h
bx0000 j
bx0000 m
b0 b
0W
0J
1/
1:
#364000
0/
0:
#365000
b0 b
1/
1:
#366000
0/
0:
#367000
b0 b
1/
1:
#368000
0/
0:
#369000
b0 b
1/
1:
#370000
0/
0:
#371000
b0 b
1/
1:
#372000
0/
0:
#373000
b0 b
1/
1:
#374000
0/
0:
#375000
b0 b
1/
1:
#376000
0/
0:
#377000
b0 b
1/
1:
#378000
0/
0:
#379000
b0 b
1/
1:
#380000
0/
0:
#381000
b0 b
1/
1:
#382000
0/
0:
#383000
b0 b
1/
1:
#384000
0/
0:
#385000
b0 b
1/
1:
#386000
0/
0:
#387000
b0 b
1/
1:
#388000
0/
0:
#389000
b0 b
1/
1:
#390000
0/
0:
#391000
b0 b
1/
1:
#392000
0/
0:
#393000
b0 b
1/
1:
#394000
0/
0:
#395000
b0 b
1/
1:
#396000
0/
0:
#397000
b0 b
1/
1:
#398000
0/
0:
#399000
b0 b
1/
1:
#400000
0/
0:
06
0K
#401000
0X
b0 b
1/
1:
#402000
0/
0:
#403000
b0 b
0Y
1/
1:
#404000
0/
0:
#405000
b1 U
b0 b
1/
1:
#406000
0/
0:
#407000
b0 b
b10 U
1/
1:
#408000
0/
0:
#409000
b11 U
b0 b
1/
1:
#410000
0/
0:
#411000
b0 b
1V
1@
0T
0C
b0 U
1/
1:
#412000
0/
0:
#413000
0V
0@
b0 b
1/
1:
#414000
0/
0:
#415000
b0 b
1/
1:
#416000
0/
0:
#417000
b0 b
1/
1:
#418000
0/
0:
#419000
b0 b
1/
1:
#420000
0/
0:
#421000
b0 b
1/
1:
#422000
0/
0:
#423000
b0 b
1/
1:
#424000
0/
0:
#425000
b0 b
1/
1:
#426000
0/
0:
#427000
b0 b
1/
1:
#428000
0/
0:
#429000
b0 b
1/
1:
#430000
0/
0:
#431000
b0 b
1/
1:
#432000
0/
0:
#433000
b0 b
1/
1:
#434000
0/
0:
#435000
b0 b
1/
1:
#436000
0/
0:
#437000
b0 b
1/
1:
#438000
0/
0:
#439000
b0 b
1/
1:
#440000
0/
0:
#441000
b0 b
1/
1:
#442000
0/
0:
#443000
b0 b
1/
1:
#444000
0/
0:
#445000
b0 b
1/
1:
#446000
0/
0:
#447000
b0 b
1/
1:
#448000
0/
0:
#449000
b0 b
1/
1:
#450000
0/
0:
16
1K
#451000
b0 b
1X
1/
1:
#452000
0/
0:
#453000
1Y
b0 b
1/
1:
#454000
0/
0:
#455000
b0 b
b1 U
1/
1:
#456000
0/
0:
#457000
b10 U
b0 b
1/
1:
#458000
0/
0:
#459000
b0 b
b11 U
1/
1:
#460000
0/
0:
#461000
1W
1J
1T
1C
b0 U
b0 b
1/
1:
#462000
0/
0:
#463000
bx00000 i
bx00000 I
bx00000 h
bx00000 j
bx00000 m
b0 b
0W
0J
1/
1:
#464000
0/
0:
#465000
b0 b
1/
1:
#466000
0/
0:
#467000
b0 b
1/
1:
#468000
0/
0:
#469000
b0 b
1/
1:
#470000
0/
0:
#471000
b0 b
1/
1:
#472000
0/
0:
#473000
b0 b
1/
1:
#474000
0/
0:
#475000
b0 b
1/
1:
#476000
0/
0:
#477000
b0 b
1/
1:
#478000
0/
0:
#479000
b0 b
1/
1:
#480000
0/
0:
#481000
b0 b
1/
1:
#482000
0/
0:
#483000
b0 b
1/
1:
#484000
0/
0:
#485000
b0 b
1/
1:
#486000
0/
0:
#487000
b0 b
1/
1:
#488000
0/
0:
#489000
b0 b
1/
1:
#490000
0/
0:
#491000
b0 b
1/
1:
#492000
0/
0:
#493000
b0 b
1/
1:
#494000
0/
0:
#495000
b0 b
1/
1:
#496000
0/
0:
#497000
b0 b
1/
1:
#498000
0/
0:
#499000
b0 b
1/
1:
#500000
0/
0:
06
0K
#501000
0X
b0 b
1/
1:
#502000
0/
0:
#503000
b0 b
0Y
1/
1:
#504000
0/
0:
#505000
b1 U
b0 b
1/
1:
#506000
0/
0:
#507000
b0 b
b10 U
1/
1:
#508000
0/
0:
#509000
b11 U
b0 b
1/
1:
#510000
0/
0:
#511000
b0 b
1V
1@
0T
0C
b0 U
1/
1:
#512000
0/
0:
#513000
0V
0@
b0 b
1/
1:
#514000
0/
0:
#515000
b0 b
1/
1:
#516000
0/
0:
#517000
b0 b
1/
1:
#518000
0/
0:
#519000
b0 b
1/
1:
#520000
0/
0:
#521000
b0 b
1/
1:
#522000
0/
0:
#523000
b0 b
1/
1:
#524000
0/
0:
#525000
b0 b
1/
1:
#526000
0/
0:
#527000
b0 b
1/
1:
#528000
0/
0:
#529000
b0 b
1/
1:
#530000
0/
0:
#531000
b0 b
1/
1:
#532000
0/
0:
#533000
b0 b
1/
1:
#534000
0/
0:
#535000
b0 b
1/
1:
#536000
0/
0:
#537000
b0 b
1/
1:
#538000
0/
0:
#539000
b0 b
1/
1:
#540000
0/
0:
#541000
b0 b
1/
1:
#542000
0/
0:
#543000
b0 b
1/
1:
#544000
0/
0:
#545000
b0 b
1/
1:
#546000
0/
0:
#547000
b0 b
1/
1:
#548000
0/
0:
#549000
b0 b
1/
1:
#550000
0/
0:
16
1K
#551000
b0 b
1X
1/
1:
#552000
0/
0:
#553000
1Y
b0 b
1/
1:
#554000
0/
0:
#555000
b0 b
b1 U
1/
1:
#556000
0/
0:
#557000
b10 U
b0 b
1/
1:
#558000
0/
0:
#559000
b0 b
b11 U
1/
1:
#560000
0/
0:
#561000
1W
1J
1T
1C
b0 U
b0 b
1/
1:
#562000
0/
0:
#563000
bx000000 i
bx000000 I
bx000000 h
bx000000 j
bx000000 m
b0 b
0W
0J
1/
1:
#564000
0/
0:
#565000
b0 b
1/
1:
#566000
0/
0:
#567000
b0 b
1/
1:
#568000
0/
0:
#569000
b0 b
1/
1:
#570000
0/
0:
#571000
b0 b
1/
1:
#572000
0/
0:
#573000
b0 b
1/
1:
#574000
0/
0:
#575000
b0 b
1/
1:
#576000
0/
0:
#577000
b0 b
1/
1:
#578000
0/
0:
#579000
b0 b
1/
1:
#580000
0/
0:
#581000
b0 b
1/
1:
#582000
0/
0:
#583000
b0 b
1/
1:
#584000
0/
0:
#585000
b0 b
1/
1:
#586000
0/
0:
#587000
b0 b
1/
1:
#588000
0/
0:
#589000
b0 b
1/
1:
#590000
0/
0:
#591000
b0 b
1/
1:
#592000
0/
0:
#593000
b0 b
1/
1:
#594000
0/
0:
#595000
b0 b
1/
1:
#596000
0/
0:
#597000
b0 b
1/
1:
#598000
0/
0:
#599000
b0 b
1/
1:
#600000
0/
0:
06
0K
#601000
0X
b0 b
1/
1:
#602000
0/
0:
#603000
b0 b
0Y
1/
1:
#604000
0/
0:
#605000
b1 U
b0 b
1/
1:
#606000
0/
0:
#607000
b0 b
b10 U
1/
1:
#608000
0/
0:
#609000
b11 U
b0 b
1/
1:
#610000
0/
0:
#611000
b0 b
1V
1@
0T
0C
b0 U
1/
1:
#612000
0/
0:
#613000
0V
0@
b0 b
1/
1:
#614000
0/
0:
#615000
b0 b
1/
1:
#616000
0/
0:
#617000
b0 b
1/
1:
#618000
0/
0:
#619000
b0 b
1/
1:
#620000
0/
0:
#621000
b0 b
1/
1:
#622000
0/
0:
#623000
b0 b
1/
1:
#624000
0/
0:
#625000
b0 b
1/
1:
#626000
0/
0:
#627000
b0 b
1/
1:
#628000
0/
0:
#629000
b0 b
1/
1:
#630000
0/
0:
#631000
b0 b
1/
1:
#632000
0/
0:
#633000
b0 b
1/
1:
#634000
0/
0:
#635000
b0 b
1/
1:
#636000
0/
0:
#637000
b0 b
1/
1:
#638000
0/
0:
#639000
b0 b
1/
1:
#640000
0/
0:
#641000
b0 b
1/
1:
#642000
0/
0:
#643000
b0 b
1/
1:
#644000
0/
0:
#645000
b0 b
1/
1:
#646000
0/
0:
#647000
b0 b
1/
1:
#648000
0/
0:
#649000
b0 b
1/
1:
#650000
0/
0:
16
1K
#651000
b0 b
1X
1/
1:
#652000
0/
0:
#653000
1Y
b0 b
1/
1:
#654000
0/
0:
#655000
b0 b
b1 U
1/
1:
#656000
0/
0:
#657000
b10 U
b0 b
1/
1:
#658000
0/
0:
#659000
b0 b
b11 U
1/
1:
#660000
0/
0:
#661000
1W
1J
1T
1C
b0 U
b0 b
1/
1:
#662000
0/
0:
#663000
bx0000000 i
bx0000000 I
bx0000000 h
bx0000000 j
bx0000000 m
b0 b
0W
0J
1/
1:
#664000
0/
0:
#665000
b0 b
1/
1:
#666000
0/
0:
#667000
b0 b
1/
1:
#668000
0/
0:
#669000
b0 b
1/
1:
#670000
0/
0:
#671000
b0 b
1/
1:
#672000
0/
0:
#673000
b0 b
1/
1:
#674000
0/
0:
#675000
b0 b
1/
1:
#676000
0/
0:
#677000
b0 b
1/
1:
#678000
0/
0:
#679000
b0 b
1/
1:
#680000
0/
0:
#681000
b0 b
1/
1:
#682000
0/
0:
#683000
b0 b
1/
1:
#684000
0/
0:
#685000
b0 b
1/
1:
#686000
0/
0:
#687000
b0 b
1/
1:
#688000
0/
0:
#689000
b0 b
1/
1:
#690000
0/
0:
#691000
b0 b
1/
1:
#692000
0/
0:
#693000
b0 b
1/
1:
#694000
0/
0:
#695000
b0 b
1/
1:
#696000
0/
0:
#697000
b0 b
1/
1:
#698000
0/
0:
#699000
b0 b
1/
1:
#700000
0/
0:
06
0K
#701000
0X
b0 b
1/
1:
#702000
0/
0:
#703000
b0 b
0Y
1/
1:
#704000
0/
0:
#705000
b1 U
b0 b
1/
1:
#706000
0/
0:
#707000
b0 b
b10 U
1/
1:
#708000
0/
0:
#709000
b11 U
b0 b
1/
1:
#710000
0/
0:
#711000
b0 b
1V
1@
0T
0C
b0 U
1/
1:
#712000
0/
0:
#713000
0V
0@
b0 b
1/
1:
#714000
0/
0:
#715000
b0 b
1/
1:
#716000
0/
0:
#717000
b0 b
1/
1:
#718000
0/
0:
#719000
b0 b
1/
1:
#720000
0/
0:
#721000
b0 b
1/
1:
#722000
0/
0:
#723000
b0 b
1/
1:
#724000
0/
0:
#725000
b0 b
1/
1:
#726000
0/
0:
#727000
b0 b
1/
1:
#728000
0/
0:
#729000
b0 b
1/
1:
#730000
0/
0:
#731000
b0 b
1/
1:
#732000
0/
0:
#733000
b0 b
1/
1:
#734000
0/
0:
#735000
b0 b
1/
1:
#736000
0/
0:
#737000
b0 b
1/
1:
#738000
0/
0:
#739000
b0 b
1/
1:
#740000
0/
0:
#741000
b0 b
1/
1:
#742000
0/
0:
#743000
b0 b
1/
1:
#744000
0/
0:
#745000
b0 b
1/
1:
#746000
0/
0:
#747000
b0 b
1/
1:
#748000
0/
0:
#749000
b0 b
1/
1:
#750000
0/
0:
16
1K
#751000
b0 b
1X
1/
1:
#752000
0/
0:
#753000
1Y
b0 b
1/
1:
#754000
0/
0:
#755000
b0 b
b1 U
1/
1:
#756000
0/
0:
#757000
b10 U
b0 b
1/
1:
#758000
0/
0:
#759000
b0 b
b11 U
1/
1:
#760000
0/
0:
#761000
1W
1J
1T
1C
b0 U
b0 b
1/
1:
#762000
0/
0:
#763000
0L
b0 i
b0 I
b0 h
b0 j
b0 m
b0 b
0W
0J
1/
1:
#764000
0/
0:
#765000
b0 b
1/
1:
#766000
0/
0:
#767000
b0 b
1/
1:
#768000
0/
0:
#769000
b0 b
1/
1:
#770000
0/
0:
#771000
b0 b
1/
1:
#772000
0/
0:
#773000
b0 b
1/
1:
#774000
0/
0:
#775000
b0 b
1/
1:
#776000
0/
0:
#777000
b0 b
1/
1:
#778000
0/
0:
#779000
b0 b
1/
1:
#780000
0/
0:
#781000
b0 b
1/
1:
#782000
0/
0:
#783000
b0 b
1/
1:
#784000
0/
0:
#785000
b0 b
1/
1:
#786000
0/
0:
#787000
b0 b
1/
1:
#788000
0/
0:
#789000
b0 b
1/
1:
#790000
0/
0:
#791000
b0 b
1/
1:
#792000
0/
0:
#793000
b0 b
1/
1:
#794000
0/
0:
#795000
b0 b
1/
1:
#796000
0/
0:
#797000
b0 b
1/
1:
#798000
0/
0:
#799000
b0 b
1/
1:
#800000
0/
0:
06
0K
#801000
0X
b0 b
1/
1:
#802000
0/
0:
#803000
b0 b
0Y
1/
1:
#804000
0/
0:
#805000
b1 U
b0 b
1/
1:
#806000
0/
0:
#807000
b0 b
b10 U
1/
1:
#808000
0/
0:
#809000
b11 U
b0 b
1/
1:
#810000
0/
0:
#811000
b0 b
1V
1@
0T
0C
b0 U
1/
1:
#812000
0/
0:
#813000
0V
0@
b0 b
0o
09
1/
1:
#814000
0/
0:
#815000
b0 b
1/
1:
#816000
0/
0:
#817000
b0 b
1/
1:
#818000
0/
0:
#819000
b0 b
1/
1:
#820000
0/
0:
#821000
b0 b
1/
1:
#822000
0/
0:
#823000
b0 b
1/
1:
#824000
0/
0:
#825000
b0 b
1/
1:
#826000
0/
0:
#827000
b0 b
1/
1:
#828000
0/
0:
#829000
b0 b
1/
1:
#830000
0/
0:
#831000
b0 b
1/
1:
#832000
0/
0:
#833000
b0 b
1/
1:
#834000
0/
0:
#835000
b0 b
1/
1:
#836000
0/
0:
#837000
b0 b
1/
1:
#838000
0/
0:
#839000
b0 b
1/
1:
#840000
0/
0:
#841000
b0 b
1/
1:
#842000
0/
0:
#843000
b0 b
1/
1:
#844000
0/
0:
#845000
b0 b
1/
1:
#846000
0/
0:
#847000
b0 b
1/
1:
#848000
0/
0:
#849000
b0 b
1/
1:
#850000
0/
0:
16
1K
#851000
b0 b
1X
1/
1:
#852000
0/
0:
#853000
1Y
b0 b
1/
1:
#854000
0/
0:
#855000
b0 b
b1 U
1/
1:
#856000
0/
0:
#857000
b10 U
b0 b
1/
1:
#858000
0/
0:
#859000
b0 b
b11 U
1/
1:
#860000
0/
0:
#861000
1W
1J
1T
1C
b0 U
b0 b
1/
1:
#862000
0/
0:
#863000
b0 i
b0 b
0W
0J
1/
1:
#864000
0/
0:
#865000
b0 b
1/
1:
#866000
0/
0:
#867000
b0 b
1/
1:
#868000
0/
0:
#869000
b0 b
1/
1:
#870000
0/
0:
#871000
b0 b
1/
1:
#872000
0/
0:
#873000
b0 b
1/
1:
#874000
0/
0:
#875000
b0 b
1/
1:
#876000
0/
0:
#877000
b0 b
1/
1:
#878000
0/
0:
#879000
b0 b
1/
1:
#880000
0/
0:
#881000
b0 b
1/
1:
#882000
0/
0:
#883000
b0 b
1/
1:
#884000
0/
0:
#885000
b0 b
1/
1:
#886000
0/
0:
#887000
b0 b
1/
1:
#888000
0/
0:
#889000
b0 b
1/
1:
#890000
0/
0:
#891000
b0 b
1/
1:
#892000
0/
0:
#893000
b0 b
1/
1:
#894000
0/
0:
#895000
b0 b
1/
1:
#896000
0/
0:
#897000
b0 b
1/
1:
#898000
0/
0:
#899000
b0 b
1/
1:
#900000
0/
0:
06
0K
#901000
0X
b0 b
1/
1:
#902000
0/
0:
#903000
b0 b
0Y
1/
1:
#904000
0/
0:
#905000
b1 U
b0 b
1/
1:
#906000
0/
0:
#907000
b0 b
b10 U
1/
1:
#908000
0/
0:
#909000
b11 U
b0 b
1/
1:
#910000
0/
0:
#911000
b0 b
1V
1@
0T
0C
b0 U
1/
1:
#912000
0/
0:
#913000
0V
0@
b0 b
1/
1:
#914000
0/
0:
