spi.vcd
$date
	Fri Oct 28 15:20:55 2016
$end
$version
	Icarus Verilog
$end
$timescale
	1s
$end
$scope module testspi $end
$scope module dut $end
$var wire 1 ! addrWe $end
$var wire 8 " address [7:0] $end
$var wire 1 # bufferin $end
$var wire 1 $ clk $end
$var wire 1 % conditioned_cs $end
$var wire 1 & conditioned_mosi $end
$var wire 1 ' cs_pin $end
$var wire 8 ( dataOut [7:0] $end
$var wire 1 ) dmWe $end
$var wire 1 * dummy0 $end
$var wire 1 + dummy1 $end
$var wire 1 , dummy2 $end
$var wire 1 - dummy3 $end
$var wire 1 . dummy5 $end
$var wire 1 / falling $end
$var wire 4 0 leds [3:0] $end
$var wire 1 1 misoBufe $end
$var wire 1 2 miso_pin $end
$var wire 1 3 mosi_pin $end
$var wire 8 4 parallelDataOut [7:0] $end
$var wire 1 5 rising $end
$var wire 1 6 sclk_pin $end
$var wire 1 7 serialDataOut $end
$var wire 1 8 srWe $end
$scope module ic0 $end
$var wire 1 $ clk $end
$var wire 1 3 noisysignal $end
$var reg 1 9 conditioned $end
$var reg 3 : counter [2:0] $end
$var reg 1 ; negativeedge $end
$var reg 1 < positiveedge $end
$var reg 1 = synchronizer0 $end
$var reg 1 > synchronizer1 $end
$upscope $end
$scope module ic1 $end
$var wire 1 $ clk $end
$var wire 1 6 noisysignal $end
$var reg 1 ? conditioned $end
$var reg 3 @ counter [2:0] $end
$var reg 1 A negativeedge $end
$var reg 1 B positiveedge $end
$var reg 1 C synchronizer0 $end
$var reg 1 D synchronizer1 $end
$upscope $end
$scope module ic2 $end
$var wire 1 $ clk $end
$var wire 1 ' noisysignal $end
$var reg 1 E conditioned $end
$var reg 3 F counter [2:0] $end
$var reg 1 G negativeedge $end
$var reg 1 H positiveedge $end
$var reg 1 I synchronizer0 $end
$var reg 1 J synchronizer1 $end
$upscope $end
$scope module sr $end
$var wire 1 $ clk $end
$var wire 8 K parallelDataIn [7:0] $end
$var wire 8 L parallelDataOut [7:0] $end
$var wire 1 / parallelLoad $end
$var wire 1 5 peripheralClkEdge $end
$var wire 1 & serialDataIn $end
$var wire 1 7 serialDataOut $end
$var reg 8 M shiftregistermem [7:0] $end
$upscope $end
$scope module dm $end
$var wire 7 N address [6:0] $end
$var wire 1 $ clk $end
$var wire 8 O dataIn [7:0] $end
$var wire 1 ) writeEnable $end
$var reg 8 P dataOut [7:0] $end
$upscope $end
$scope module fsm $end
$var wire 1 $ clk $end
$var wire 1 % cs $end
$var wire 1 Q rw $end
$var wire 1 5 sclk $end
$var reg 1 R addr $end
$var reg 6 S count [5:0] $end
$var reg 1 T dm $end
$var reg 1 U misobuff $end
$var reg 1 V sr $end
$var reg 4 W state [3:0] $end
$upscope $end
$scope module dff $end
$var wire 1 7 d $end
$var wire 1 / enable $end
$var wire 1 $ trigger $end
$var reg 1 X q $end
$upscope $end
$scope module addressLatch $end
$var wire 8 Y d [7:0] $end
$var wire 1 ! enable $end
$var wire 1 $ trigger $end
$var reg 8 Z q [7:0] $end
$upscope $end
$scope module buff $end
$var wire 1 1 enable $end
$var wire 1 # in $end
$var wire 1 2 out $end
$upscope $end
$upscope $end
$upscope $end
$enddefinitions $end
#0
$dumpvars
bx Z
bx Y
xX
b0 W
xV
xU
xT
b0 S
xR
xQ
bx P
bx O
bx N
bx M
bx L
bx K
0J
0I
0H
0G
b0 F
0E
0D
0C
0B
0A
b0 @
0?
0>
0=
0<
0;
b0 :
09
x8
x7
06
05
bx 4
x3
x2
x1
bz 0
0/
0.
0-
0,
0+
0*
x)
bx (
0'
0&
0%
0$
x#
bx "
x!
$end
#5
z2
x=
1C
0V
08
0R
0!
0T
0)
0U
01
16
1$
#10
06
0$
1'
#15
1I
1D
x>
16
1$
#20
06
0$
#25
b1 :
b1 @
1J
16
1$
#30
06
0$
#35
b1 F
b10 @
b10 :
16
1$
#40
03
06
0$
0'
#45
0=
b11 :
b11 @
0I
b10 F
16
1$
#50
06
0$
#55
0J
b11 F
1B
15
1?
1,
b0 @
0>
1;
1+
x9
x&
b0 :
16
1$
#60
06
0$
#65
b1 :
0;
0+
0B
05
b0 F
b1 S
16
1$
#70
06
0$
#75
b10 :
16
1$
#80
06
0$
#85
b11 :
16
1$
#90
06
0$
#95
1;
1+
09
0&
b0 :
16
1$
#100
06
0$
#105
0;
0+
16
1$
#110
06
0$
#115
16
1$
#120
06
0$
#125
16
1$
#130
06
0$
#135
16
1$
#140
06
0$
#145
16
1$
#150
06
0$
#155
16
1$
#160
06
0$
#165
16
1$
#170
06
0$
#175
16
1$
#180
06
0$
#185
16
1$
#190
06
0$
#195
16
1$
#200
06
0$
#205
16
1$
#210
06
0$
#215
16
1$
#220
06
0$
#225
16
1$
#230
06
0$
#235
16
1$
#240
13
06
0$
#245
1=
16
1$
#250
06
0$
#255
1>
16
1$
#260
06
0$
#265
b1 :
16
1$
#270
06
0$
#275
b10 :
16
1$
#280
06
0$
#285
b11 :
16
1$
#290
06
0$
#295
1<
1*
19
1&
b0 :
16
1$
#300
06
0$
#305
0<
0*
16
1$
#310
06
0$
#315
16
1$
#320
06
0$
#325
16
1$
#330
06
0$
#335
16
1$
#340
03
06
0$
#345
0=
16
1$
#350
06
0$
#355
0>
16
1$
#360
06
0$
#365
b1 :
16
1$
#370
06
0$
#375
b10 :
16
1$
#380
06
0$
#385
b11 :
16
1$
#390
06
0$
#395
1;
1+
09
0&
b0 :
16
1$
#400
06
0$
#405
0;
0+
16
1$
#410
06
0$
#415
16
1$
#420
06
0$
#425
16
1$
#430
06
0$
#435
16
1$
#440
13
06
0$
#445
1=
16
1$
#450
06
0$
#455
1>
16
1$
#460
06
0$
#465
b1 :
16
1$
#470
06
0$
#475
b10 :
16
1$
#480
06
0$
#485
b11 :
16
1$
#490
06
0$
#495
1<
1*
19
1&
b0 :
16
1$
#500
06
0$
#505
0<
0*
16
1$
#510
06
0$
#515
16
1$
#520
06
0$
#525
16
1$
#530
06
0$
#535
16
1$
#540
03
06
0$
#545
0=
16
1$
#550
06
0$
#555
0>
16
1$
#560
06
0$
#565
b1 :
16
1$
#570
06
0$
#575
b10 :
16
1$
#580
06
0$
#585
b11 :
16
1$
#590
06
0$
#595
1;
1+
09
0&
b0 :
16
1$
#600
06
0$
#605
0;
0+
16
1$
#610
06
0$
#615
16
1$
#620
06
0$
#625
16
1$
#630
06
0$
#635
16
1$
#640
06
0$
#645
16
1$
#650
06
0$
#655
16
1$
#660
06
0$
#665
16
1$
#670
06
0$
#675
16
1$
#680
06
0$
#685
16
1$
#690
06
0$
#695
16
1$
#700
06
0$
#705
16
1$
#710
06
0$
#715
16
1$
#720
06
0$
#725
16
1$
#730
06
0$
#735
16
1$
#740
06
0$
13
#745
1=
16
1$
#750
06
0$
#755
1>
16
1$
#760
06
0$
#765
b1 :
16
1$
#770
06
0$
#775
b10 :
16
1$
#780
06
0$
#785
b11 :
16
1$
#790
06
0$
#795
1<
1*
19
1&
b0 :
16
1$
#800
06
0$
#805
0<
0*
16
1$
