spimemory.vcd
$date
	Sun Oct 30 02:52:04 2016
$end
$version
	Icarus Verilog
$end
$timescale
	1ps
$end
$scope module spimemory_test $end
$var wire 4 ! leds [3:0] $end
$var wire 1 " miso_pin $end
$var reg 1 # clk $end
$var reg 1 $ cs_pin $end
$var reg 1 % mosi_pin $end
$var reg 1 & sclk_counter $end
$var reg 1 ' sclk_pin $end
$scope module dut $end
$var wire 1 ( addr_we $end
$var wire 1 ) clk $end
$var wire 1 * cs_conditioned $end
$var wire 1 + cs_negedge $end
$var wire 1 , cs_pin $end
$var wire 1 - cs_posedge $end
$var wire 8 . dataMemOut [7:0] $end
$var wire 1 / dm_we $end
$var wire 4 0 leds [3:0] $end
$var wire 1 1 miso_buff $end
$var wire 1 " miso_pin $end
$var wire 1 2 mosi_conditioned $end
$var wire 1 3 mosi_negedge $end
$var wire 1 4 mosi_pin $end
$var wire 1 5 mosi_posedge $end
$var wire 1 6 sclk_conditioned $end
$var wire 1 7 sclk_negedge $end
$var wire 1 8 sclk_pin $end
$var wire 1 9 sclk_posedge $end
$var wire 8 : shiftRegOutP [7:0] $end
$var wire 1 ; shiftRegOutS $end
$var wire 1 < sr_we $end
$var reg 7 = address [6:0] $end
$var reg 1 > shiftRegOutS_DFF $end
$scope module conditioner0 $end
$var wire 1 ) clk $end
$var wire 1 4 noisysignal $end
$var reg 1 ? conditioned $end
$var reg 3 @ counter [2:0] $end
$var reg 1 A dff0 $end
$var reg 1 B dff1 $end
$var reg 1 C negativeedge $end
$var reg 1 D positiveedge $end
$var reg 1 E synchronizer0 $end
$var reg 1 F synchronizer1 $end
$upscope $end
$scope module conditioner1 $end
$var wire 1 ) clk $end
$var wire 1 8 noisysignal $end
$var reg 1 G conditioned $end
$var reg 3 H counter [2:0] $end
$var reg 1 I dff0 $end
$var reg 1 J dff1 $end
$var reg 1 K negativeedge $end
$var reg 1 L positiveedge $end
$var reg 1 M synchronizer0 $end
$var reg 1 N synchronizer1 $end
$upscope $end
$scope module conditioner2 $end
$var wire 1 ) clk $end
$var wire 1 , noisysignal $end
$var reg 1 O conditioned $end
$var reg 3 P counter [2:0] $end
$var reg 1 Q dff0 $end
$var reg 1 R dff1 $end
$var reg 1 S negativeedge $end
$var reg 1 T positiveedge $end
$var reg 1 U synchronizer0 $end
$var reg 1 V synchronizer1 $end
$upscope $end
$scope module fsm0 $end
$var wire 1 * c_cs $end
$var wire 1 ) clk $end
$var wire 1 W msb_sr $end
$var wire 1 9 peripheralClkEdge $end
$var reg 1 X ADDR_WE $end
$var reg 1 Y DM_WE $end
$var reg 1 Z MISO_BUFF $end
$var reg 1 [ SR_WE $end
$var reg 4 \ counter [3:0] $end
$var reg 1 ] counter_reset $end
$var reg 8 ^ state [7:0] $end
$upscope $end
$scope module datamemory0 $end
$var wire 7 _ address [6:0] $end
$var wire 1 ) clk $end
$var wire 8 ` dataIn [7:0] $end
$var wire 1 / writeEnable $end
$var reg 8 a dataOut [7:0] $end
$upscope $end
$scope module shiftregister0 $end
$var wire 1 ) clk $end
$var wire 8 b parallelDataIn [7:0] $end
$var wire 8 c parallelDataOut [7:0] $end
$var wire 1 < parallelLoad $end
$var wire 1 9 peripheralClkEdge $end
$var wire 1 2 serialDataIn $end
$var wire 1 ; serialDataOut $end
$var reg 8 d shiftregistermem [7:0] $end
$upscope $end
$scope module tribuf $end
$var wire 1 e a $end
$var wire 1 " b $end
$var wire 1 1 enable $end
$upscope $end
$upscope $end
$upscope $end
$enddefinitions $end
#0
$dumpvars
xe
bx d
bx c
bx b
bx a
bx `
b0 _
b1 ^
0]
b0 \
0[
0Z
0Y
0X
xW
0V
1U
0T
0S
0R
0Q
b1 P
xO
0N
0M
0L
0K
0J
0I
b1 H
xG
0F
xE
0D
0C
0B
0A
b1 @
x?
x>
b0 =
0<
x;
bx :
09
08
07
x6
05
x4
03
x2
01
bz 0
0/
bx .
0-
1,
0+
x*
1)
0(
0'
0&
x%
1$
1#
z"
bz !
$end
#1000
0#
0)
#2000
1V
b10 P
b10 H
xF
b10 @
1#
1)
#3000
0#
0)
#4000
b11 @
b11 H
b11 P
1#
1)
#5000
0#
0)
#6000
1T
1-
1O
1*
b0 P
1K
17
0G
06
b0 H
xC
x3
b0 @
1#
1)
#7000
0#
0)
#8000
b1 @
0C
03
0K
07
0T
0-
1]
1#
1)
#9000
0#
0)
#10000
1]
1M
b10 @
1#
1)
1'
18
#11000
0#
0)
#12000
b11 @
1N
1]
1#
1)
#13000
0#
0)
#14000
1]
b1 H
xC
x3
b0 @
1#
1)
#15000
0#
0)
#16000
b1 @
0C
03
b10 H
1]
1#
1)
#17000
0#
0)
#18000
1]
b11 H
b10 @
1#
1)
#19000
0#
0)
#20000
b11 @
0M
1L
19
1G
16
b0 H
1]
1#
1)
0'
08
#21000
0#
0)
#22000
bx d
bx :
bx `
bx c
1]
0N
0L
09
xC
x3
b0 @
1#
1)
#23000
0#
0)
#24000
b1 @
0C
03
b1 H
1]
1#
1)
#25000
0#
0)
#26000
1]
b10 H
b10 @
1#
1)
#27000
0#
0)
#28000
b11 @
b11 H
1]
1#
1)
#29000
0#
0)
#30000
1]
1M
1K
17
0G
06
b0 H
xC
x3
b0 @
1#
1)
1'
18
#31000
0#
0)
#32000
b1 @
0C
03
1N
0K
07
1]
1#
1)
#33000
0#
0)
#34000
1]
b1 H
b10 @
1#
1)
#35000
0#
0)
#36000
b11 @
b10 H
1]
1#
1)
#37000
0#
0)
#38000
1]
b11 H
xC
x3
b0 @
1#
1)
#39000
0#
0)
#40000
b1 @
0C
03
0M
1L
19
1G
16
b0 H
1]
1#
1)
0'
08
#41000
0#
0)
#42000
bx d
bx :
bx `
bx c
1]
0N
0L
09
b10 @
1#
1)
#43000
0#
0)
#44000
b11 @
b1 H
1]
1#
1)
#45000
0#
0)
#46000
1]
b10 H
xC
x3
b0 @
1#
1)
#47000
0#
0)
#48000
b1 @
0C
03
b11 H
1]
1#
1)
#49000
0#
0)
#50000
1]
1M
1K
17
0G
06
b0 H
b10 @
1#
1)
1'
18
#51000
0#
0)
#52000
b11 @
1N
0K
07
1]
1#
1)
#53000
0#
0)
#54000
1]
b1 H
xC
x3
b0 @
1#
1)
#55000
0#
0)
#56000
b1 @
0C
03
b10 H
1]
1#
1)
#57000
0#
0)
#58000
1]
b11 H
b10 @
1#
1)
#59000
0#
0)
#60000
b11 @
0M
1L
19
1G
16
b0 H
1]
1#
1)
0'
08
#61000
0#
0)
#62000
bx d
bx :
bx `
bx c
1]
0N
0L
09
xC
x3
b0 @
1#
1)
#63000
0#
0)
#64000
b1 @
0C
03
b1 H
1]
1#
1)
#65000
0#
0)
#66000
1]
b10 H
b10 @
1#
1)
#67000
0#
0)
#68000
b11 @
b11 H
1]
1#
1)
#69000
0#
0)
#70000
1]
1M
1K
17
0G
06
b0 H
xC
x3
b0 @
1#
1)
1'
18
#71000
0#
0)
#72000
b1 @
0C
03
1N
0K
07
1]
1#
1)
#73000
0#
0)
#74000
1]
b1 H
b10 @
1#
1)
#75000
0#
0)
#76000
b11 @
b10 H
1]
1#
1)
#77000
0#
0)
#78000
1]
b11 H
xC
x3
b0 @
1#
1)
#79000
0#
0)
#80000
b1 @
0C
03
0M
1L
19
1G
16
b0 H
1]
1#
1)
0'
08
#81000
0#
0)
#82000
bx d
bx :
bx `
bx c
1]
0N
0L
09
b10 @
1#
1)
#83000
0#
0)
#84000
b11 @
b1 H
1]
1#
1)
#85000
0#
0)
#86000
1]
b10 H
xC
x3
b0 @
1#
1)
#87000
0#
0)
#88000
b1 @
0C
03
b11 H
1]
1#
1)
#89000
0#
0)
#90000
1]
1M
1K
17
0G
06
b0 H
b10 @
1#
1)
1'
18
#91000
0#
0)
#92000
b11 @
1N
0K
07
1]
1#
1)
#93000
0#
0)
#94000
1]
b1 H
xC
x3
b0 @
1#
1)
#95000
0#
0)
#96000
b1 @
0C
03
b10 H
1]
1#
1)
#97000
0#
0)
#98000
1]
b11 H
b10 @
1#
1)
#99000
0#
0)
#100000
b11 @
0M
1L
19
1G
16
b0 H
0U
1]
1#
1)
0'
08
0$
0,
#101000
0#
0)
#102000
bx d
bx :
bx `
bx c
1]
0V
0N
0L
09
xC
x3
b0 @
1#
1)
#103000
0#
0)
#104000
b1 @
0C
03
b1 H
b1 P
1]
1#
1)
#105000
0#
0)
1%
14
#106000
1]
b10 P
b10 H
1E
b10 @
1#
1)
#107000
0#
0)
#108000
1F
b11 @
b11 H
b11 P
1]
1#
1)
#109000
0#
0)
#110000
1]
1S
1+
0O
0*
b0 P
1M
1K
17
0G
06
b0 H
1D
15
1?
12
b0 @
1#
1)
1'
18
#111000
0#
0)
#112000
0D
05
1N
0K
07
0S
0+
0]
1#
1)
#113000
0#
0)
#114000
b1 H
1#
1)
#115000
0#
0)
#116000
b10 H
1#
1)
#117000
0#
0)
#118000
b11 H
1#
1)
#119000
0#
0)
#120000
0M
1L
19
1G
16
b0 H
1#
1)
0'
08
#121000
0#
0)
#122000
1W
bx1 d
bx1 :
bx1 `
bx1 c
b1 \
0N
0L
09
1#
1)
#123000
0#
0)
#124000
b1 H
1#
1)
#125000
0#
0)
0%
04
#126000
b10 H
0E
1#
1)
#127000
0#
0)
#128000
0F
b11 H
1#
1)
#129000
0#
0)
#130000
1M
1K
17
0G
06
b0 H
b1 @
1#
1)
1'
18
#131000
0#
0)
#132000
b10 @
1N
0K
07
1#
1)
#133000
0#
0)
#134000
b1 H
b11 @
1#
1)
#135000
0#
0)
#136000
1C
13
0?
02
b0 @
b10 H
1#
1)
#137000
0#
0)
#138000
b11 H
0C
03
1#
1)
#139000
0#
0)
#140000
0M
1L
19
1G
16
b0 H
1#
1)
0'
08
#141000
0#
0)
#142000
0W
bx10 d
bx10 :
bx10 `
bx10 c
b10 \
0N
0L
09
1#
1)
#143000
0#
0)
#144000
b1 H
1#
1)
#145000
0#
0)
1%
14
#146000
b10 H
1E
1#
1)
#147000
0#
0)
#148000
1F
b11 H
1#
1)
#149000
0#
0)
#150000
1M
1K
17
0G
06
b0 H
b1 @
1#
1)
1'
18
#151000
0#
0)
#152000
b10 @
1N
0K
07
1#
1)
#153000
0#
0)
#154000
b1 H
b11 @
1#
1)
#155000
0#
0)
#156000
1D
15
1?
12
b0 @
b10 H
1#
1)
#157000
0#
0)
#158000
b11 H
0D
05
1#
1)
#159000
0#
0)
#160000
0M
1L
19
1G
16
b0 H
1#
1)
0'
08
#161000
0#
0)
#162000
1W
bx101 d
bx101 :
bx101 `
bx101 c
b11 \
0N
0L
09
1#
1)
#163000
0#
0)
#164000
b1 H
1#
1)
#165000
0#
0)
0%
04
#166000
b10 H
0E
1#
1)
#167000
0#
0)
#168000
0F
b11 H
1#
1)
#169000
0#
0)
#170000
1M
1K
17
0G
06
b0 H
b1 @
1#
1)
1'
18
#171000
0#
0)
#172000
b10 @
1N
0K
07
1#
1)
#173000
0#
0)
#174000
b1 H
b11 @
1#
1)
#175000
0#
0)
#176000
1C
13
0?
02
b0 @
b10 H
1#
1)
#177000
0#
0)
#178000
b11 H
0C
03
1#
1)
#179000
0#
0)
#180000
0M
1L
19
1G
16
b0 H
1#
1)
0'
08
#181000
0#
0)
#182000
0W
bx1010 d
bx1010 :
bx1010 `
bx1010 c
b100 \
0N
0L
09
1#
1)
#183000
0#
0)
#184000
b1 H
1#
1)
#185000
0#
0)
1%
14
#186000
b10 H
1E
1#
1)
#187000
0#
0)
#188000
1F
b11 H
1#
1)
#189000
0#
0)
#190000
1M
1K
17
0G
06
b0 H
b1 @
1#
1)
1'
18
#191000
0#
0)
#192000
b10 @
1N
0K
07
1#
1)
#193000
0#
0)
#194000
b1 H
b11 @
1#
1)
#195000
0#
0)
#196000
1D
15
1?
12
b0 @
b10 H
1#
1)
#197000
0#
0)
#198000
b11 H
0D
05
1#
1)
#199000
0#
0)
#200000
0M
1L
19
1G
16
b0 H
1#
1)
0'
08
#201000
0#
0)
#202000
1W
bx10101 d
bx10101 :
bx10101 `
bx10101 c
b101 \
0N
0L
09
1#
1)
#203000
0#
0)
#204000
b1 H
1#
1)
#205000
0#
0)
0%
04
#206000
b10 H
0E
1#
1)
#207000
0#
0)
#208000
0F
b11 H
1#
1)
#209000
0#
0)
#210000
1M
1K
17
0G
06
b0 H
b1 @
1#
1)
1'
18
#211000
0#
0)
#212000
b10 @
1N
0K
07
1#
1)
#213000
0#
0)
#214000
b1 H
b11 @
1#
1)
#215000
0#
0)
#216000
1C
13
0?
02
b0 @
b10 H
1#
1)
#217000
0#
0)
#218000
b11 H
0C
03
1#
1)
#219000
0#
0)
#220000
0M
1L
19
1G
16
b0 H
1#
1)
0'
08
#221000
0#
0)
#222000
0W
bx101010 d
bx101010 :
bx101010 `
bx101010 c
b110 \
0N
0L
09
1#
1)
#223000
0#
0)
#224000
b1 H
1#
1)
#225000
0#
0)
1%
14
#226000
b10 H
1E
1#
1)
#227000
0#
0)
#228000
1F
b11 H
1#
1)
#229000
0#
0)
#230000
1M
1K
17
0G
06
b0 H
b1 @
1#
1)
1'
18
#231000
0#
0)
#232000
b10 @
1N
0K
07
1#
1)
#233000
0#
0)
#234000
b1 H
b11 @
1#
1)
#235000
0#
0)
#236000
1D
15
1?
12
b0 @
b10 H
1#
1)
#237000
0#
0)
#238000
b11 H
0D
05
1#
1)
#239000
0#
0)
#240000
0M
1L
19
1G
16
b0 H
1#
1)
0'
08
#241000
0#
0)
#242000
1W
bx1010101 d
bx1010101 :
bx1010101 `
bx1010101 c
b111 \
0N
0L
09
1#
1)
#243000
0#
0)
#244000
b1 H
1#
1)
#245000
0#
0)
0%
04
#246000
b10 H
0E
1#
1)
#247000
0#
0)
#248000
0F
b11 H
1#
1)
#249000
0#
0)
#250000
1M
1K
17
0G
06
b0 H
b1 @
1#
1)
1'
18
#251000
0#
0)
#252000
b10 @
1N
0K
07
1#
1)
#253000
0#
0)
#254000
b1 H
b11 @
1#
1)
#255000
0#
0)
#256000
1C
13
0?
02
b0 @
b10 H
1#
1)
#257000
0#
0)
#258000
b11 H
0C
03
1#
1)
#259000
0#
0)
#260000
0M
1L
19
1G
16
b0 H
1#
1)
0'
08
#261000
0#
0)
#262000
1;
0W
b10101010 d
b10101010 :
b10101010 `
b10101010 c
b1000 \
0N
0L
09
1#
1)
#263000
0#
0)
#264000
1]
1X
1(
b1 H
b10 ^
1>
1e
1#
1)
#265000
0#
0)
1%
14
#266000
0X
0(
b1010101 =
b1010101 _
b100000 ^
0]
b0 \
b10 H
1E
1#
1)
#267000
0#
0)
#268000
1F
b11 H
1#
1)
#269000
0#
0)
#270000
1M
1K
17
0G
06
b0 H
b1 @
1#
1)
1'
18
#271000
0#
0)
#272000
b10 @
1N
0K
07
1#
1)
#273000
0#
0)
#274000
b1 H
b11 @
1#
1)
#275000
0#
0)
#276000
1D
15
1?
12
b0 @
b10 H
1#
1)
#277000
0#
0)
#278000
b11 H
0D
05
1#
1)
#279000
0#
0)
#280000
0M
1L
19
1G
16
b0 H
1#
1)
0'
08
#281000
0#
0)
#282000
1W
0;
b1010101 d
b1010101 :
b1010101 `
b1010101 c
b1 \
0N
0L
09
1#
1)
#283000
0#
0)
#284000
b1 H
0>
0e
1#
1)
#285000
0#
0)
#286000
b10 H
1#
1)
#287000
0#
0)
#288000
b11 H
1#
1)
#289000
0#
0)
#290000
1M
1K
17
0G
06
b0 H
1#
1)
1'
18
#291000
0#
0)
#292000
1N
0K
07
1#
1)
#293000
0#
0)
#294000
b1 H
1#
1)
#295000
0#
0)
#296000
b10 H
1#
1)
#297000
0#
0)
#298000
b11 H
1#
1)
#299000
0#
0)
#300000
0M
1L
19
1G
16
b0 H
1#
1)
0'
08
#301000
0#
0)
#302000
1;
b10101011 d
b10101011 :
b10101011 `
b10101011 c
b10 \
0N
0L
09
1#
1)
#303000
0#
0)
#304000
b1 H
1>
1e
1#
1)
#305000
0#
0)
0%
04
#306000
b10 H
0E
1#
1)
#307000
0#
0)
#308000
0F
b11 H
1#
1)
#309000
0#
0)
#310000
1M
1K
17
0G
06
b0 H
b1 @
1#
1)
1'
18
#311000
0#
0)
#312000
b10 @
1N
0K
07
1#
1)
#313000
0#
0)
#314000
b1 H
b11 @
1#
1)
#315000
0#
0)
#316000
1C
13
0?
02
b0 @
b10 H
1#
1)
#317000
0#
0)
#318000
b11 H
0C
03
1#
1)
#319000
0#
0)
#320000
0M
1L
19
1G
16
b0 H
1#
1)
0'
08
#321000
0#
0)
#322000
0;
0W
b1010110 d
b1010110 :
b1010110 `
b1010110 c
b11 \
0N
0L
09
1#
1)
#323000
0#
0)
#324000
b1 H
0>
0e
1#
1)
#325000
0#
0)
#326000
b10 H
1#
1)
#327000
0#
0)
#328000
b11 H
1#
1)
#329000
0#
0)
#330000
1M
1K
17
0G
06
b0 H
1#
1)
1'
18
#331000
0#
0)
#332000
1N
0K
07
1#
1)
#333000
0#
0)
#334000
b1 H
1#
1)
#335000
0#
0)
#336000
b10 H
1#
1)
#337000
0#
0)
#338000
b11 H
1#
1)
#339000
0#
0)
#340000
0M
1L
19
1G
16
b0 H
1#
1)
0'
08
#341000
0#
0)
#342000
1;
b10101100 d
b10101100 :
b10101100 `
b10101100 c
b100 \
0N
0L
09
1#
1)
#343000
0#
0)
#344000
b1 H
1>
1e
1#
1)
#345000
0#
0)
1%
14
#346000
b10 H
1E
1#
1)
#347000
0#
0)
#348000
1F
b11 H
1#
1)
#349000
0#
0)
#350000
1M
1K
17
0G
06
b0 H
b1 @
1#
1)
1'
18
#351000
0#
0)
#352000
b10 @
1N
0K
07
1#
1)
#353000
0#
0)
#354000
b1 H
b11 @
1#
1)
#355000
0#
0)
#356000
1D
15
1?
12
b0 @
b10 H
1#
1)
#357000
0#
0)
#358000
b11 H
0D
05
1#
1)
#359000
0#
0)
#360000
0M
1L
19
1G
16
b0 H
1#
1)
0'
08
#361000
0#
0)
#362000
1W
0;
b1011001 d
b1011001 :
b1011001 `
b1011001 c
b101 \
0N
0L
09
1#
1)
#363000
0#
0)
#364000
b1 H
0>
0e
1#
1)
#365000
0#
0)
0%
04
#366000
b10 H
0E
1#
1)
#367000
0#
0)
#368000
0F
b11 H
1#
1)
#369000
0#
0)
#370000
1M
1K
17
0G
06
b0 H
b1 @
1#
1)
1'
18
#371000
0#
0)
#372000
b10 @
1N
0K
07
1#
1)
#373000
0#
0)
#374000
b1 H
b11 @
1#
1)
#375000
0#
0)
#376000
1C
13
0?
02
b0 @
b10 H
1#
1)
#377000
0#
0)
#378000
b11 H
0C
03
1#
1)
#379000
0#
0)
#380000
0M
1L
19
1G
16
b0 H
1#
1)
0'
08
#381000
0#
0)
#382000
1;
0W
b10110010 d
b10110010 :
b10110010 `
b10110010 c
b110 \
0N
0L
09
1#
1)
#383000
0#
0)
#384000
b1 H
1>
1e
1#
1)
#385000
0#
0)
1%
14
#386000
b10 H
1E
1#
1)
#387000
0#
0)
#388000
1F
b11 H
1#
1)
#389000
0#
0)
#390000
1M
1K
17
0G
06
b0 H
b1 @
1#
1)
1'
18
#391000
0#
0)
#392000
b10 @
1N
0K
07
1#
1)
#393000
0#
0)
#394000
b1 H
b11 @
1#
1)
#395000
0#
0)
#396000
1D
15
1?
12
b0 @
b10 H
1#
1)
#397000
0#
0)
#398000
b11 H
0D
05
1#
1)
#399000
0#
0)
#400000
0M
1L
19
1G
16
b0 H
1#
1)
0'
08
#401000
0#
0)
#402000
1W
0;
b1100101 d
b1100101 :
b1100101 `
b1100101 c
b111 \
0N
0L
09
1#
1)
#403000
0#
0)
#404000
b1 H
0>
0e
1#
1)
#405000
0#
0)
0%
04
#406000
b10 H
0E
1#
1)
#407000
0#
0)
#408000
0F
b11 H
1#
1)
#409000
0#
0)
#410000
1M
1K
17
0G
06
b0 H
b1 @
1#
1)
1'
18
#411000
0#
0)
#412000
b10 @
1N
0K
07
1#
1)
#413000
0#
0)
#414000
b1 H
b11 @
1#
1)
#415000
0#
0)
#416000
1C
13
0?
02
b0 @
b10 H
1#
1)
#417000
0#
0)
#418000
b11 H
0C
03
1#
1)
#419000
0#
0)
#420000
0M
1L
19
1G
16
b0 H
1#
1)
0'
08
#421000
0#
0)
#422000
1;
0W
b11001010 d
b11001010 :
b11001010 `
b11001010 c
b1000 \
0N
0L
09
1#
1)
#423000
0#
0)
#424000
1Y
1/
b1 H
b1000000 ^
1>
1e
1#
1)
#425000
0#
0)
1$
1,
#426000
b0 \
1]
0Y
0/
b0 =
b0 _
b10000000 ^
1U
b10 H
1#
1)
#427000
0#
0)
#428000
b11 H
1V
0]
1#
1)
#429000
0#
0)
#430000
b1 P
1M
1K
17
0G
06
b0 H
1#
1)
1'
18
#431000
0#
0)
#432000
1N
0K
07
b10 P
1#
1)
#433000
0#
0)
#434000
b11 P
b1 H
1#
1)
#435000
0#
0)
#436000
b10 H
1T
1-
1O
1*
b0 P
1#
1)
#437000
0#
0)
#438000
1]
b1 ^
0T
0-
b11 H
1#
1)
#439000
0#
0)
#440000
0M
1L
19
1G
16
b0 H
1]
1#
1)
0'
08
#441000
0#
0)
#442000
b10010100 d
b10010100 :
b10010100 `
b10010100 c
1]
0N
0L
09
1#
1)
#443000
0#
0)
#444000
b1 H
1]
1#
1)
#445000
0#
0)
#446000
1]
b10 H
1#
1)
#447000
0#
0)
#448000
b11 H
1]
1#
1)
#449000
0#
0)
#450000
1]
1M
1K
17
0G
06
b0 H
1#
1)
1'
18
#451000
0#
0)
#452000
1N
0K
07
1]
1#
1)
#453000
0#
0)
#454000
1]
b1 H
1#
1)
#455000
0#
0)
#456000
b10 H
1]
1#
1)
#457000
0#
0)
#458000
1]
b11 H
1#
1)
#459000
0#
0)
#460000
0M
1L
19
1G
16
b0 H
1]
1#
1)
0'
08
#461000
0#
0)
#462000
0;
b101000 d
b101000 :
b101000 `
b101000 c
1]
0N
0L
09
1#
1)
#463000
0#
0)
#464000
b1 H
1]
0>
0e
1#
1)
#465000
0#
0)
#466000
1]
b10 H
1#
1)
#467000
0#
0)
#468000
b11 H
1]
1#
1)
#469000
0#
0)
#470000
1]
1M
1K
17
0G
06
b0 H
1#
1)
1'
18
#471000
0#
0)
#472000
1N
0K
07
1]
1#
1)
#473000
0#
0)
#474000
1]
b1 H
1#
1)
#475000
0#
0)
#476000
b10 H
1]
1#
1)
#477000
0#
0)
#478000
1]
b11 H
1#
1)
#479000
0#
0)
#480000
0M
1L
19
1G
16
b0 H
1]
1#
1)
0'
08
#481000
0#
0)
#482000
b1010000 d
b1010000 :
b1010000 `
b1010000 c
1]
0N
0L
09
1#
1)
#483000
0#
0)
#484000
b1 H
1]
1#
1)
#485000
0#
0)
#486000
1]
b10 H
1#
1)
#487000
0#
0)
#488000
b11 H
1]
1#
1)
#489000
0#
0)
#490000
1]
1M
1K
17
0G
06
b0 H
1#
1)
1'
18
#491000
0#
0)
#492000
1N
0K
07
1]
1#
1)
#493000
0#
0)
#494000
1]
b1 H
1#
1)
#495000
0#
0)
#496000
b10 H
1]
1#
1)
#497000
0#
0)
#498000
1]
b11 H
1#
1)
#499000
0#
0)
#500000
0M
1L
19
1G
16
b0 H
1]
1#
1)
0'
08
#501000
0#
0)
#502000
1;
b10100000 d
b10100000 :
b10100000 `
b10100000 c
1]
0N
0L
09
1#
1)
#503000
0#
0)
#504000
b1 H
1]
1>
1e
1#
1)
#505000
0#
0)
#506000
1]
b10 H
1#
1)
#507000
0#
0)
#508000
b11 H
1]
1#
1)
#509000
0#
0)
#510000
1]
1M
1K
17
0G
06
b0 H
1#
1)
1'
18
#511000
0#
0)
#512000
1N
0K
07
1]
1#
1)
#513000
0#
0)
#514000
1]
b1 H
1#
1)
#515000
0#
0)
#516000
b10 H
1]
1#
1)
#517000
0#
0)
#518000
1]
b11 H
1#
1)
#519000
0#
0)
#520000
0M
1L
19
1G
16
b0 H
1]
1#
1)
0'
08
#521000
0#
0)
#522000
0;
b1000000 d
b1000000 :
b1000000 `
b1000000 c
1]
0N
0L
09
1#
1)
#523000
0#
0)
#524000
b1 H
1]
0>
0e
1#
1)
#525000
0#
0)
#526000
1]
b10 H
1#
1)
#527000
0#
0)
#528000
b11 H
1]
1#
1)
#529000
0#
0)
#530000
1]
0U
1M
1K
17
0G
06
b0 H
1E
1#
1)
1'
18
1%
14
0$
0,
#531000
0#
0)
#532000
1F
1N
0K
07
0V
1]
1#
1)
#533000
0#
0)
#534000
1]
b1 P
b1 H
b1 @
1#
1)
#535000
0#
0)
#536000
b10 @
b10 H
b10 P
1]
1#
1)
#537000
0#
0)
#538000
1]
b11 P
b11 H
b11 @
1#
1)
#539000
0#
0)
#540000
1D
15
1?
12
b0 @
0M
1L
19
1G
16
b0 H
1S
1+
0O
0*
b0 P
1]
1#
1)
0'
08
#541000
0#
0)
#542000
1W
1;
b10000001 d
b10000001 :
b10000001 `
b10000001 c
b1 \
0]
0S
0+
0N
0L
09
0D
05
1#
1)
#543000
0#
0)
#544000
b1 H
1>
1e
1#
1)
#545000
0#
0)
#546000
b10 H
1#
1)
#547000
0#
0)
#548000
b11 H
1#
1)
#549000
0#
0)
#550000
1M
1K
17
0G
06
b0 H
0E
1#
1)
1'
18
0%
04
#551000
0#
0)
#552000
0F
1N
0K
07
1#
1)
#553000
0#
0)
#554000
b1 H
b1 @
1#
1)
#555000
0#
0)
#556000
b10 @
b10 H
1#
1)
#557000
0#
0)
#558000
b11 H
b11 @
1#
1)
#559000
0#
0)
#560000
1C
13
0?
02
b0 @
0M
1L
19
1G
16
b0 H
1#
1)
0'
08
#561000
0#
0)
#562000
0;
0W
b10 d
b10 :
b10 `
b10 c
b10 \
0N
0L
09
0C
03
1#
1)
#563000
0#
0)
#564000
b1 H
0>
0e
1#
1)
#565000
0#
0)
#566000
b10 H
1#
1)
#567000
0#
0)
#568000
b11 H
1#
1)
#569000
0#
0)
#570000
1M
1K
17
0G
06
b0 H
1E
1#
1)
1'
18
1%
14
#571000
0#
0)
#572000
1F
1N
0K
07
1#
1)
#573000
0#
0)
#574000
b1 H
b1 @
1#
1)
#575000
0#
0)
#576000
b10 @
b10 H
1#
1)
#577000
0#
0)
#578000
b11 H
b11 @
1#
1)
#579000
0#
0)
#580000
1D
15
1?
12
b0 @
0M
1L
19
1G
16
b0 H
1#
1)
0'
08
#581000
0#
0)
#582000
1W
b101 d
b101 :
b101 `
b101 c
b11 \
0N
0L
09
0D
05
1#
1)
#583000
0#
0)
#584000
b1 H
1#
1)
#585000
0#
0)
#586000
b10 H
1#
1)
#587000
0#
0)
#588000
b11 H
1#
1)
#589000
0#
0)
#590000
1M
1K
17
0G
06
b0 H
0E
1#
1)
1'
18
0%
04
#591000
0#
0)
#592000
0F
1N
0K
07
1#
1)
#593000
0#
0)
#594000
b1 H
b1 @
1#
1)
#595000
0#
0)
#596000
b10 @
b10 H
1#
1)
#597000
0#
0)
#598000
b11 H
b11 @
1#
1)
#599000
0#
0)
#600000
1C
13
0?
02
b0 @
0M
1L
19
1G
16
b0 H
1#
1)
0'
08
#601000
0#
0)
#602000
0W
b1010 d
b1010 :
b1010 `
b1010 c
b100 \
0N
0L
09
0C
03
1#
1)
#603000
0#
0)
#604000
b1 H
1#
1)
#605000
0#
0)
#606000
b10 H
1#
1)
#607000
0#
0)
#608000
b11 H
1#
1)
#609000
0#
0)
#610000
1M
1K
17
0G
06
b0 H
1E
1#
1)
1'
18
1%
14
#611000
0#
0)
#612000
1F
1N
0K
07
1#
1)
#613000
0#
0)
#614000
b1 H
b1 @
1#
1)
#615000
0#
0)
#616000
b10 @
b10 H
1#
1)
#617000
0#
0)
#618000
b11 H
b11 @
1#
1)
#619000
0#
0)
#620000
1D
15
1?
12
b0 @
0M
1L
19
1G
16
b0 H
1#
1)
0'
08
#621000
0#
0)
#622000
1W
b10101 d
b10101 :
b10101 `
b10101 c
b101 \
0N
0L
09
0D
05
1#
1)
#623000
0#
0)
#624000
b1 H
1#
1)
#625000
0#
0)
#626000
b10 H
1#
1)
#627000
0#
0)
#628000
b11 H
1#
1)
#629000
0#
0)
#630000
1M
1K
17
0G
06
b0 H
0E
1#
1)
1'
18
0%
04
#631000
0#
0)
#632000
0F
1N
0K
07
1#
1)
#633000
0#
0)
#634000
b1 H
b1 @
1#
1)
#635000
0#
0)
#636000
b10 @
b10 H
1#
1)
#637000
0#
0)
#638000
b11 H
b11 @
1#
1)
#639000
0#
0)
#640000
1C
13
0?
02
b0 @
0M
1L
19
1G
16
b0 H
1#
1)
0'
08
#641000
0#
0)
#642000
0W
b101010 d
b101010 :
b101010 `
b101010 c
b110 \
0N
0L
09
0C
03
1#
1)
#643000
0#
0)
#644000
b1 H
1#
1)
#645000
0#
0)
#646000
b10 H
1#
1)
#647000
0#
0)
#648000
b11 H
1#
1)
#649000
0#
0)
#650000
1M
1K
17
0G
06
b0 H
1E
1#
1)
1'
18
1%
14
#651000
0#
0)
#652000
1F
1N
0K
07
1#
1)
#653000
0#
0)
#654000
b1 H
b1 @
1#
1)
#655000
0#
0)
#656000
b10 @
b10 H
1#
1)
#657000
0#
0)
#658000
b11 H
b11 @
1#
1)
#659000
0#
0)
#660000
1D
15
1?
12
b0 @
0M
1L
19
1G
16
b0 H
1#
1)
0'
08
#661000
0#
0)
#662000
1W
b1010101 d
b1010101 :
b1010101 `
b1010101 c
b111 \
0N
0L
09
0D
05
1#
1)
#663000
0#
0)
#664000
b1 H
1#
1)
#665000
0#
0)
#666000
b10 H
1#
1)
#667000
0#
0)
#668000
b11 H
1#
1)
#669000
0#
0)
#670000
1M
1K
17
0G
06
b0 H
1#
1)
1'
18
#671000
0#
0)
#672000
1N
0K
07
1#
1)
#673000
0#
0)
#674000
b1 H
1#
1)
#675000
0#
0)
#676000
b10 H
1#
1)
#677000
0#
0)
#678000
b11 H
1#
1)
#679000
0#
0)
