spimemory.vcd
$date
	Sun Oct 30 01:15:28 2016
$end
$version
	Icarus Verilog
$end
$timescale
	1s
$end
$scope module testSpiMemory $end
$var wire 4 ! leds [3:0] $end
$var wire 1 " miso_pin $end
$var reg 1 # clk $end
$var reg 1 $ cs_pin $end
$var reg 1 % mosi_pin $end
$var reg 1 & sclk_pin $end
$scope module spiMem $end
$var wire 7 ' addr [6:0] $end
$var wire 1 ( addrWe $end
$var wire 1 ) clk $end
$var wire 1 * conditioned $end
$var wire 1 + conditioned1 $end
$var wire 1 , conditioned2 $end
$var wire 1 - cs_pin $end
$var wire 8 . dOut [7:0] $end
$var wire 1 / dffOutput $end
$var wire 1 0 diffOutput $end
$var wire 1 1 dmWe $end
$var wire 4 2 leds [3:0] $end
$var wire 1 3 misoBufe $end
$var wire 1 " miso_pin $end
$var wire 1 4 mosi_pin $end
$var wire 1 5 negativeEdge $end
$var wire 1 6 negativeEdge1 $end
$var wire 1 7 negativeEdge2 $end
$var wire 8 8 parallelOut [7:0] $end
$var wire 1 9 positiveEdge $end
$var wire 1 : positiveEdge1 $end
$var wire 1 ; positiveEdge2 $end
$var wire 1 < sclk_pin $end
$var wire 1 = serialOut $end
$var wire 1 > srWe $end
$scope module mosiIC $end
$var wire 1 ) clk $end
$var wire 1 4 noisysignal $end
$var reg 1 ? conditioned $end
$var reg 3 @ counter [2:0] $end
$var reg 1 A negativeedge $end
$var reg 1 B positiveedge $end
$var reg 1 C synchronizer0 $end
$var reg 1 D synchronizer1 $end
$upscope $end
$scope module sclkIC $end
$var wire 1 ) clk $end
$var wire 1 < noisysignal $end
$var reg 1 E conditioned $end
$var reg 3 F counter [2:0] $end
$var reg 1 G negativeedge $end
$var reg 1 H positiveedge $end
$var reg 1 I synchronizer0 $end
$var reg 1 J synchronizer1 $end
$upscope $end
$scope module csIC $end
$var wire 1 ) clk $end
$var wire 1 - noisysignal $end
$var reg 1 K conditioned $end
$var reg 3 L counter [2:0] $end
$var reg 1 M negativeedge $end
$var reg 1 N positiveedge $end
$var reg 1 O synchronizer0 $end
$var reg 1 P synchronizer1 $end
$upscope $end
$scope module finiteStateMachine $end
$var wire 1 : cs $end
$var wire 1 Q read_write_bit $end
$var wire 1 , sclk $end
$var reg 1 R addr_le $end
$var reg 4 S counter [3:0] $end
$var reg 1 T dm_we $end
$var reg 1 U miso_enable $end
$var reg 1 V sr_we $end
$var reg 4 W state [3:0] $end
$upscope $end
$scope module sr $end
$var wire 1 ) clk $end
$var wire 8 X parallelDataIn [7:0] $end
$var wire 1 > parallelLoad $end
$var wire 1 : peripheralClkEdge $end
$var wire 1 * serialDataIn $end
$var reg 8 Y parallelDataOut [7:0] $end
$var reg 1 Z serialDataOut $end
$var reg 8 [ shiftregistermem [7:0] $end
$upscope $end
$scope module al $end
$var wire 1 ) clk $end
$var wire 7 \ d [6:0] $end
$var wire 1 ( wrenable $end
$var reg 7 ] q [6:0] $end
$upscope $end
$scope module dm $end
$var wire 7 ^ address [6:0] $end
$var wire 1 ) clk $end
$var wire 8 _ dataIn [7:0] $end
$var wire 1 1 writeEnable $end
$var reg 8 ` dataOut [7:0] $end
$upscope $end
$scope module dff $end
$var wire 1 ) clk $end
$var wire 1 = d $end
$var wire 1 6 wrenable $end
$var reg 1 a q $end
$upscope $end
$upscope $end
$upscope $end
$enddefinitions $end
#0
$dumpvars
xa
bx `
bx _
bx ^
bx ]
bx \
bx [
xZ
bx Y
bx X
b0 W
xV
xU
xT
b0 S
xR
xQ
0P
0O
xN
xM
b0 L
xK
0J
0I
xH
xG
b0 F
xE
0D
0C
xB
xA
b0 @
x?
x>
x=
x<
x;
x:
x9
bx 8
x7
x6
x5
x4
x3
bz 2
x1
x0
z/
bx .
1-
x,
x+
x*
0)
x(
bx '
x&
x%
1$
0#
x"
bz !
$end
#10
xC
b1 @
xI
b1 F
1O
b1 L
1#
1)
#20
0#
0)
#30
1P
b10 L
xJ
b10 F
xD
b10 @
1#
1)
#40
0#
0)
#50
b11 @
b11 F
b11 L
1#
1)
#60
0#
0)
#70
0"
b1 S
0U
03
0R
0(
0T
01
0V
0>
0M
07
1K
1,
b0 L
b0 F
b0 @
1#
1)
#80
0#
0)
#90
b1 @
b1 F
0N
0;
1#
1)
#100
0#
0)
#110
b10 F
b10 @
1#
1)
#120
0#
0)
#130
b11 @
b11 F
1#
1)
#140
0#
0)
#150
b0 F
b0 @
1#
1)
#160
0#
0)
#170
b1 @
b1 F
1#
1)
#180
0#
0)
#190
b10 F
b10 @
1#
1)
#200
0#
0)
#210
b11 @
b11 F
1#
1)
#220
0#
0)
#230
b0 F
b0 @
1#
1)
#240
0#
0)
#250
b1 @
b1 F
1#
1)
#260
0#
0)
#270
b10 F
b10 @
1#
1)
#280
0#
0)
#290
b11 @
b11 F
1#
1)
#300
0#
0)
#310
b0 F
b0 @
1#
1)
#320
0#
0)
#330
b1 @
b1 F
1#
1)
#340
0#
0)
#350
b10 F
b10 @
1#
1)
#360
0#
0)
#370
b11 @
b11 F
1#
1)
#380
0#
0)
#390
b0 F
b0 @
1#
1)
#400
0#
0)
#410
b1 @
b1 F
1#
1)
#420
0#
0)
#430
b10 F
b10 @
1#
1)
#440
0#
0)
#450
b11 @
b11 F
1#
1)
#460
0#
0)
#470
b0 F
b0 @
1#
1)
#480
0#
0)
#490
b1 @
b1 F
1#
1)
#500
0#
0)
#510
b10 F
b10 @
1#
1)
#520
0#
0)
#530
b11 @
b11 F
1#
1)
#540
0#
0)
#550
b0 F
b0 @
1#
1)
#560
0#
0)
#570
b1 @
b1 F
1#
1)
#580
0#
0)
#590
b10 F
b10 @
1#
1)
#600
0#
0)
#610
b11 @
b11 F
1#
1)
#620
0#
0)
#630
b0 F
b0 @
1#
1)
#640
0#
0)
#650
b1 @
b1 F
1#
1)
#660
0#
0)
#670
b10 F
b10 @
1#
1)
#680
0#
0)
#690
b11 @
b11 F
1#
1)
#700
0#
0)
#710
b0 F
b0 @
1#
1)
#720
0#
0)
#730
b1 @
b1 F
1#
1)
#740
0#
0)
#750
b10 F
b10 @
1#
1)
#760
0#
0)
#770
b11 @
b11 F
1#
1)
#780
0#
0)
#790
b0 F
b0 @
1#
1)
#800
0#
0)
#810
b1 @
b1 F
1#
1)
#820
0#
0)
#830
b10 F
b10 @
1#
1)
#840
0#
0)
#850
b11 @
b11 F
1#
1)
#860
0#
0)
#870
b0 F
b0 @
1#
1)
#880
0#
0)
#890
b1 @
b1 F
1#
1)
#900
0#
0)
#910
b10 F
b10 @
1#
1)
#920
0#
0)
#930
b11 @
b11 F
1#
1)
#940
0#
0)
#950
b0 F
b0 @
1#
1)
#960
0#
0)
#970
b1 @
b1 F
1#
1)
#980
0#
0)
#990
b10 F
b10 @
1#
1)
#1000
0#
0)
0&
0<
0$
0-
#1010
b11 @
0I
b11 F
0O
1#
1)
#1020
0#
0)
#1030
0P
0J
b0 F
b0 @
1#
1)
#1040
0#
0)
#1050
b1 @
b1 F
b1 L
1#
1)
#1060
0#
0)
#1070
b10 L
b10 F
b10 @
1#
1)
#1080
0#
0)
#1090
b11 @
b11 F
b11 L
1#
1)
#1100
0#
0)
#1110
1M
17
0K
0,
b0 L
0H
0:
0E
0+
b0 F
b0 @
1#
1)
#1120
0#
0)
#1130
b1 @
0G
06
0M
07
1#
1)
#1140
0#
0)
#1150
b10 @
1#
1)
#1160
0#
0)
#1170
b11 @
1#
1)
#1180
0#
0)
#1190
b0 @
1#
1)
#1200
0#
0)
#1210
b1 @
1#
1)
#1220
0#
0)
#1230
b10 @
1#
1)
#1240
0#
0)
#1250
b11 @
1#
1)
#1260
0#
0)
#1270
b0 @
1#
1)
#1280
0#
0)
#1290
b1 @
1#
1)
#1300
0#
0)
#1310
b10 @
1#
1)
#1320
0#
0)
#1330
b11 @
1#
1)
#1340
0#
0)
#1350
b0 @
1#
1)
#1360
0#
0)
#1370
b1 @
1#
1)
#1380
0#
0)
#1390
b10 @
1#
1)
#1400
0#
0)
#1410
b11 @
1#
1)
#1420
0#
0)
#1430
b0 @
1#
1)
#1440
0#
0)
#1450
b1 @
1#
1)
#1460
0#
0)
#1470
b10 @
1#
1)
#1480
0#
0)
#1490
b11 @
1#
1)
#1500
0#
0)
#1510
b0 @
1#
1)
#1520
0#
0)
#1530
b1 @
1#
1)
#1540
0#
0)
#1550
b10 @
1#
1)
#1560
0#
0)
#1570
b11 @
1#
1)
#1580
0#
0)
#1590
b0 @
1#
1)
#1600
0#
0)
#1610
b1 @
1#
1)
#1620
0#
0)
#1630
b10 @
1#
1)
#1640
0#
0)
#1650
b11 @
1#
1)
#1660
0#
0)
#1670
b0 @
1#
1)
#1680
0#
0)
#1690
b1 @
1#
1)
#1700
0#
0)
#1710
b10 @
1#
1)
#1720
0#
0)
#1730
b11 @
1#
1)
#1740
0#
0)
#1750
b0 @
1#
1)
#1760
0#
0)
#1770
b1 @
1#
1)
#1780
0#
0)
#1790
b10 @
1#
1)
#1800
0#
0)
#1810
b11 @
1#
1)
#1820
0#
0)
#1830
b0 @
1#
1)
#1840
0#
0)
#1850
b1 @
1#
1)
#1860
0#
0)
#1870
b10 @
1#
1)
#1880
0#
0)
#1890
b11 @
1#
1)
#1900
0#
0)
#1910
b0 @
1#
1)
#1920
0#
0)
#1930
b1 @
1#
1)
#1940
0#
0)
#1950
b10 @
1#
1)
#1960
0#
0)
#1970
b11 @
1#
1)
#1980
0#
0)
#1990
b0 @
1#
1)
#2000
0#
0)
0%
04
#2010
0C
b1 @
1#
1)
#2020
0#
0)
#2030
0D
b10 @
1#
1)
#2040
0#
0)
#2050
b11 @
1#
1)
#2060
0#
0)
#2070
0B
09
0?
0*
b0 @
1#
1)
#2080
0#
0)
#2090
0A
05
1#
1)
